1428218
1429561
1430910
1439957
1442838
1450792
1452712
1453400
1454867
1455487
1455737
1458298
1458488
1466894
1477050
1477889
1484053
1497611
1504966
1515888
1526753
1529598
1530742
1533862
1546891
1546920
1562211
1575095
1576204
1580566
1608100
1609692
1611153
1618191
1630221
1637350
1647135
1666636
1679118
1691033
1691963
1718054
1738543
1738976
1742570
1744705
1745195
1747104
1748873
1752201
1767291
1770143
1773723
1774406
1774915
1780820
1781708
1782413
1784083
1784638
1784915
1785466
1786134
1787345
1788465
1788731
1788782
1788792
1788805
1788841
1788869
1788883
1788900
1788973
1789033
1789072
1789106
1789108
1789124
1789152
1789173
1789182
1789213
1789217
1789327
1789359
1789366
1789378
1789389
1789487
1789513
1789525
1789559
1789683
1789686
1789720
1789750
1789771
1789788
1789794
1789887
1789934
1789965
1789983
1790001
1790055
1790096
1790098
1790133
1790301
1790383
1790403
1790513
1790532
1790607
1790749
1790758
1790930
1790949
1791048
1791191
1791267
1791324
1791511
1791529
1791664
1791699
1791735
1791752
1791776
1791794
1791831
1791970
1791973
1792082
1792088
1792399
1792629
1792672
1792686
1792689
1792705
1792921
1792934
1792967
1793074
1793166
1793173
1793181
1793203
1793331
1793517
1793527
1793538
1793581
1793593
1793679
1793990
1794013
1794021
1794053
1794197
1794200
1794295
1794309
1794310
1794328
1794389
1794431
1794478
1794500
1794508
1794597
1794712
1794786
1794836
1794854
1794860
1794954
1794994
1795097
1795141
1795150
1795379
1795391
1795406
1795429
1795498
1795567
1795626
1795641
1795642
1795691
1795693
1795798
1795816
1795882
1795943
1796130
1796244
1796325
1796427
1796437
1796518
1796541
1796713
1796721
1796759
1796898
1796947
1796964
1797029
1797065
1797136
1797155
1797168
1797184
1797190
1797259
1797284
1797291
1797330
1797356
1797370
1797432
1797436
1797437
1797449
1797511
1797523
1797656
1797685
1797828
1797880
1797897
1797926
1797943
1798051
1798097
1798137
1798238
1798269
1798390
1798395
1798397
1798402
1798403
1798415
1798458
1798605
1798623
1798673
1798697
1798742
1798817
1798934
1798969
1798985
1799011
1799091
1799194
1799204
1799288
1799346
1799446
1799478
1799484
1799512
1799569
1799588
1799690
1799698
1799709
1799817
1799826
1799929
1799970
1800033
1800139
1800343
1800380
1800579
1800676
1800733
1800756
1800758
1800803
1800804
1800813
1800850
1800879
1800897
1800917
1800925
1800966
1800984
1801001
1801125
1801171
1801313
1801342
1801571
1801580
1801637
1801711
1801737
1801842
1801871
1801929
1801947
1801987
1802036
1802159
1802267
1802295
1802387
1802482
1802489
1802499
1802560
1802582
1802738
1802846
1802899
1802937
1802995
1803018
1803155
1803168
1803398
1803443
1803836
1803992
1804086
1804196
1804198
1804202
1804216
1804217
1804419
1804432
1804450
1804556
1804563
1804570
1804611
1804697
1804736
1804752
1804940
1804969
1804994
1805130
1805157
1805322
1805384
1805438
1805441
1805590
1805597
1805623
1805801
1805969
1805982
1806079
1806336
1806459
1806573
1806632
1806678
1806747
1806808
1806849
1806872
1806875
1806931
1806992
1807018
1807180
1807226
1807252
1807262
1807318
1807411
1807486
1807498
1807556
1807588
1807816
1807881
1807889
1807907
1808027
1808045
1808053
1808072
1808134
1808144
1808145
1808149
1808155
1808332
1808469
1808477
1808542
1808688
1808709
1808741
1809047
1809060
1809091
1809175
1809185
1809225
1809257
1809393
1809399
1809562
1809644
1809703
1809775
1809793
1809805
1809856
1810002
1810020
1810022
1810101
1810118
1810215
1810224
1810270
1810305
1810362
1810621
1810635
1810681
1810811
1810973
1810981
1811225
1811226
1811267
1811273
1811295
1811304
1811310
1811314
1811457
1811474
1811515
1811538
1811594
1811759
1811876
1811882
1811891
1811916
1811918
1811956
1811957
1812062
1812119
1812211
1812254
1812277
1812427
1812471
1812492
1812497
1812500
1812536
1812559
1812566
1812845
1812909
1812914
1812921
1812922
1812925
1813030
1813090
1813136
1813158
1813254
1813281
1813282
1813284
1813331
1813345
1813385
1813421
1813460
1813542
1813560
1813623
1813638
1813653
1813671
1813763
1813777
1813806
1813826
1813843
1813997
1814032
1814189
1814243
1814286
1814329
1814361
1814375
1814442
1814476
1814507
1814520
1814722
1814799
1814811
1814836
1815036
1815079
1815208
1815613
1815629
1815655
1815770
1815797
1815815
1815882
1815924
1815992
1816021
1816048
1816103
1816142
1816169
1816176
1816191
1816256
1816317
1816390
