1497611
1517819
1517823
1517828
1517830
1523591
1527227
1527745
1527768
1527772
1527782
1527783
1527787
1527798
1527827
1527828
1527853
1527875
1527911
1527945
1527997
1528002
1528003
1528079
1528094
1528096
1528108
1528146
1528163
1528247
1528298
1528390
1528395
1528467
1528481
1528513
1528524
1528609
1528638
1528640
1528654
1528686
1528690
1528711
1528720
1528744
1528755
1528764
1528771
1528772
1528811
1528868
1528884
1528908
1528938
1528946
1528948
1528958
1528966
1528970
1528976
1528991
1529005
1529013
1529026
1529053
1529070
1529079
1529112
1529116
1529118
1529123
1529142
1529186
1529212
1529215
1529223
1529254
1529268
1529273
1529290
1529292
1529306
1529315
1529406
1529443
1529467
1529598
1529604
1529619
1529653
1529767
1529774
1529834
1529918
1529961
1529975
1529978
1529994
1530025
1530042
1530106
1530131
1530150
1530212
1530245
1530246
1530253
1530254
1530255
1530268
1530271
1530367
1530386
1530394
1530442
1530467
1530476
1530490
1530537
1530541
1530589
1530598
1530601
1530609
1530614
1530617
1530630
1530638
1530643
1530662
1530680
1530683
1530703
1530708
1530737
1530742
1530771
1530792
1530822
1530851
1530863
1530949
1530986
1531043
1531077
1531152
1531164
1531218
1531247
1531257
1531278
1531280
1531284
1531329
1531342
1531347
1531349
1531365
1531380
1531381
1531422
1531430
1531435
1531455
1531495
1531548
1531609
1531625
1531640
1531657
1531750
1531766
1531801
1531855
1531879
1531955
1531988
1532135
1532141
1532144
1532159
1532161
1532238
1532273
1532274
1532340
1532410
1532467
1532613
1532618
1532644
1532688
1532792
1532796
1532817
1532877
1532891
1532901
1532919
1532928
1532931
1532938
1532998
1533041
1533104
1533229
1533279
1533291
1533314
1533423
1533495
1533526
1533555
1533607
1533608
1533662
1533663
1533830
1533839
1533851
1533860
1533862
1533874
1533880
1533888
1533894
1533899
1533902
1533913
1533952
1533975
1533977
1533994
1534002
1534020
1534039
1534053
1534108
1534192
1534319
1534340
1534472
1534600
1534633
1534641
1534657
1534658
1534665
1534706
1534707
1534732
1534755
1534823
1534826
1534899
1534908
1534964
1535014
1535036
1535049
1535067
1535072
1535087
1535104
1535143
1535161
1535178
1535258
1535283
1535361
1535436
1535476
1535477
1535786
1535832
1535835
1535923
1535935
1535938
1535959
1535978
1536006
1536012
1536061
1536106
1536160
1536163
1536215
1536226
1536275
1536293
1536294
1536300
1536303
1536312
1536394
1536634
1536880
1537125
1537133
1537186
1537213
1537225
1537333
1537421
1537614
1537645
1537648
1537678
1537736
1537794
1538125
1538274
1538422
1538459
1538780
1538848
1538905
1538962
1539070
1539122
1539129
1539204
1539220
1539275
1539432
1539669
1539693
1539700
1539884
1539910
1539974
1540032
1540080
1540138
1540148
1540219
1540352
1540400
1540449
1540453
1540460
1540483
1540504
1540508
1540575
1540743
1540852
1540911
1540920
1540983
1541024
1541032
1541130
1541189
1541198
1541210
1541315
1541327
1541352
1541449
1541551
1541586
1541627
1541687
1541689
1541705
1541724
1541726
1541781
1541808
1541843
1541865
1541871
1541913
1541930
1541984
1542015
1542160
1542180
1542249
1542271
1542411
1542474
1542507
1542542
1542570
1542639
1543004
1543094
1543101
1543214
1543423
1543687
1543972
1544143
1544169
1544208
1544287
1544328
1544338
1544381
1544601
1544917
1545076
1545101
1545270
1545381
1545472
1545543
1545678
1545679
1545730
1545981
1546026
1546063
1546070
1546095
1546184
1546216
1546248
1546273
1546534
1546565
1546646
1546699
1546891
1546918
1546919
1546920
1547136
1547156
1547269
1547271
1547426
1547511
1547634
1547944
1547984
1548023
1548078
1548104
1548139
1548239
1548241
1548268
1548412
1548437
1548455
1548459
1548470
1548489
1548492
1548633
1548634
1548670
1548709
1548770
1548783
1548820
1548942
1548950
1549004
1549008
1549027
1549069
1549081
1549127
1549220
1549277
1549301
1549348
1549471
1549478
1549485
1549516
1549534
1549572
1549635
1549696
1549708
