1428591
1447778
1454813
1466899
1468585
1477089
1477680
1497611
1499530
1509017
1526141
1533862
1566940
1580566
1600473
1603970
1630221
1645566
1648167
1650386
1657042
1685882
1695259
1726015
1730260
1730276
1732692
1733847
1762491
1782413
1784326
1785466
1789238
1790133
1826522
1835212
1846963
1847632
1848403
1848458
1851748
1852330
1854562
1856878
1856961
1858269
1861853
1877315
1884853
1886086
1886698
1889213
1889225
1891533
1891730
1891975
1893851
1896557
1896642
1896716
1896775
1896779
1896855
1896904
1897334
1897405
1897460
1897489
1897593
1897623
1897743
1897918
1897938
1898120
1898364
1898542
1898543
1898618
1898663
1898672
1898740
1898744
1898748
1898766
1898770
1898773
1898829
1898846
1898882
1898903
1898944
1898956
1899055
1899132
1899170
1899217
1899267
1899292
1899399
1899408
1899435
1899445
1899471
1899492
1899506
1899546
1899620
1899706
1899790
1899860
1899867
1899895
1900060
1900122
1900130
1900158
1900195
1900224
1900234
1900243
1900285
1900376
1900417
1900460
1900596
1900647
1900673
1900768
1900812
1900813
1900940
1900971
1901093
1901127
1901141
1901166
1901299
1901412
1901447
1901529
1901569
1901599
1901631
1901704
1901741
1901744
1901880
1901921
1902146
1902215
1902240
1902248
1902278
1902387
1902391
1902462
1902498
1902543
1902572
1902574
1902603
1902708
1902962
1902985
1903172
1903400
1903433
1903452
1903462
1903516
1903520
1903531
1903635
1903687
1903716
1903734
1903857
1904044
1904059
1904078
1904100
1904423
1904440
1904474
1904479
1904486
1904495
1904582
1904717
1904802
1904873
1904909
1904970
1904981
1905048
1905090
1905160
1905313
1905318
1905349
1905361
1905400
1905530
1905550
1905554
1905605
1905625
1905731
1905762
1905780
1905820
1905837
1905874
1906079
1906089
1906142
1906143
1906169
1906213
1906313
1906369
1906381
1906456
1906504
1906782
1906877
1906898
1907018
1907058
1907101
1907150
1907159
1907161
1907165
1907166
1907253
1907346
1907388
1907427
1907499
1907514
1907529
1907543
1907592
1907641
1907654
1907947
1907982
1907989
1908013
1908069
1908075
1908091
1908098
1908134
1908141
1908183
1908241
1908283
1908314
1908360
1908822
1908869
1909039
1909057
1909065
1909136
1909171
1909172
1909198
1909288
1909289
1909337
1909343
1909364
1909448
1909518
1909686
1909855
1909985
1910152
1910173
1910218
1910248
1910303
1910390
1910403
1910410
1910500
1910776
1910796
1910816
1910885
1910927
1911009
1911134
1911452
1911521
1911569
1911595
1911683
1911850
1911893
1911908
1911943
1911995
1912115
1912248
1912301
1912319
1912667
1912691
1912758
1912843
1912864
1912886
1912961
1913059
1913122
1913159
1913202
1913207
1913239
1913335
1913345
1913423
1913454
1913478
1913511
1913587
1913676
1913813
1914092
1914354
1914475
1914498
1914499
1914532
1914570
1914664
1914880
1914895
1915063
1915095
1915110
1915285
1915409
1915529
1915601
1915876
1915984
1916013
1916024
1916031
1916055
1916112
1916153
1916221
1916360
1916404
1916465
1916510
1916703
1916715
1916737
1916761
1916806
1916845
1916878
1916942
1917037
1917106
1917121
1917237
1917240
1917248
1917251
1917489
1917574
1917642
1917735
1917747
1917768
1917771
1917801
1917906
1917970
1918011
1918123
1918137
1918238
1918239
1918289
1918307
1918412
1918459
1918468
1918482
1918512
1918526
1918538
1918568
1918588
1918610
1918645
1918725
1918800
1918839
1918878
1919016
1919054
1919071
1919105
1919260
1919561
1919649
1919674
1919874
1919910
1919923
1920037
1920150
1920153
1920312
1920370
1920383
1920405
1920413
1920471
1920491
1920527
1920557
1920843
1920950
1920999
1921025
1921122
1921322
1921354
1921380
1921400
1921408
1921437
1921504
1921936
1921959
1922005
1922045
1922079
1922117
1922173
1922179
1922190
1922207
1922209
1922241
1922300
1922424
1922453
1922664
1922738
1922747
1922763
1922814
1922889
1922907
1922951
1922957
1922975
1923009
1923012
1923056
1923131
1923146
1923171
1923263
1923289
1923333
1923353
1923514
1923536
1923543
1923668
1923785
1923914
1924084
1924177
1924200
1924208
1924216
1924259
1924409
1924417
1924418
1924477
1924574
1924635
1924704
1924742
1924773
1924788
1924918
1924946
1925100
1925257
1925272
1925278
1925382
1925535
1925555
1925602
1925621
1925790
1925806
1925854
1926050
1926162
1926214
1926257
1926454
1926512
1926605
1926625
1926687
1926712
1926784
1926821
1926857
1926860
1926940
1926982
1927036
1927137
1927196
1927340
1927365
1927805
1927932
1927999
1928020
1928026
1928330
1928346
1928483
1928585
1928751
1928793
1928809
1928861
1928952
1929020
1929050
1929073
1929184
