1506643
1506653
1506656
1506666
1506668
1506686
1506705
1506708
1506716
1506722
1506743
1506769
1506777
1506805
1506806
1506807
1506888
1506915
1506971
1506985
1506991
1507026
1507029
1507034
1507162
1507164
1507253
1507293
1507338
1507340
1507346
1507369
1507493
1507494
1507522
1507529
1507582
1507588
1507593
1507657
1507671
1507777
1507783
1507811
1507824
1507874
1507892
1507924
1507929
1507945
1507948
1507951
1507966
1507987
1507990
1507993
1508007
1508011
1508020
1508058
1508074
1508116
1508119
1508122
1508125
1508133
1508145
1508146
1508150
1508178
1508186
1508191
1508202
1508205
1508207
1508214
1508217
1508230
1508243
1508247
1508252
1508258
1508282
1508310
1508312
1508317
1508318
1508340
1508345
1508359
1508373
1508383
1508398
1508402
1508403
1508474
1508484
1508517
1508565
1508567
1508608
1508634
1508654
1508657
1508670
1508677
1508699
1508720
1508724
1508744
1508773
1508789
1508800
1508802
1508805
1508810
1508824
1508838
1508849
1508855
1508875
1508885
1508904
1508909
1508936
1508940
1508944
1508952
1508962
1508963
1508969
1508970
1508988
1508994
1509001
1509017
1509018
1509038
1509045
1509117
1509124
1509143
1509154
1509171
1509172
1509180
1509195
1509225
1509292
1509314
1509333
1509377
1509391
1509392
1509400
1509468
1509476
1509479
1509485
1509487
1509507
1509508
1509533
1509542
1509545
1509556
1509564
1509573
1509582
1509617
1509628
1509659
1509670
1509671
1509732
1509753
1509771
1509796
1509803
1509834
1509877
1509923
1509930
1509945
1509972
1510032
1510037
1510038
1510198
1510238
1510293
1510310
1510359
1510404
1510472
1510482
1510485
1510498
1510515
1510535
1510565
1510641
1510644
1510706
1510716
1510718
1510728
1510760
1510774
1510807
1510848
1510886
1510890
1510894
1510923
1510947
1510958
1510967
1510986
1511016
1511061
1511078
1511090
1511092
1511095
1511128
1511138
1511168
1511177
1511195
1511283
1511306
1511325
1511327
1511343
1511351
1511375
1511391
1511392
1511422
1511430
1511443
1511464
1511466
1511470
1511515
1511519
1511528
1511535
1511539
1511542
1511581
1511595
1511611
1511616
1511650
1511660
1511687
1511689
1511690
1511694
1511696
1511707
1511793
1511806
1511819
1511859
1511877
1511917
1511972
1511994
1511995
1512032
1512038
1512047
1512073
1512088
1512098
1512099
1512126
1512150
1512161
1512197
1512230
1512242
1512252
1512345
1512365
1512501
1512525
1512628
1512656
1512679
1512683
1512749
1512780
1512790
1512802
1512879
1512933
1513029
1513043
1513044
1513181
1513216
1513249
1513254
1513279
1513280
1513304
1513399
1513406
1513429
1513528
1513545
1513548
1513595
1513612
1513630
1513643
1513656
1513672
1513677
1513696
1513713
1513739
1513766
1513767
1513792
1513813
1513823
1513890
1513944
1513968
1514012
1514015
1514113
1514162
1514227
1514236
1514284
1514311
1514343
1514345
1514372
1514431
1514461
1514487
1514505
1514540
1514556
1514559
1514584
1514587
1514597
1514602
1514623
1514680
1514686
1514690
1514722
1514733
1514747
1514802
1514853
1514926
1514949
1514951
1514984
1515052
1515091
1515144
1515145
1515222
1515247
1515300
1515328
1515405
1515434
1515451
1515510
1515530
1515596
1515603
1515653
1515657
1515679
1515685
1515724
1515730
1515738
1515777
1515856
1515866
1515874
1515878
1515887
1515888
1515932
1515942
1515949
1515957
1515991
1516066
1516075
1516086
1516125
1516146
1516178
1516190
1516260
1516310
1516314
1516363
1516407
1516410
1516421
1516428
1516468
1516498
1516519
1516523
1516534
1516579
1516621
1516680
1516773
1516809
1516815
1516866
1516875
1517002
1517034
1517057
1517084
1517123
1517141
1517146
1517154
1517169
1517186
1517256
1517275
1517340
1517364
1517381
1517424
1517429
1517434
1517444
1517454
1517464
1517482
1517492
1517504
1517511
1517519
1517520
1517523
1517525
1517532
1517544
1517576
1517577
1517601
1517602
1517610
1517647
1517661
1517672
1517675
1517700
1517716
1517728
1517738
1517819
1517823
1517828
1517830
1517862
