1434672
1443740
1449130
1466894
1467885
1467888
1469844
1476468
1476547
1476597
1477610
1479493
1482030
1491022
1491028
1491037
1491052
1491056
1491063
1491066
1491073
1491080
1491081
1491090
1491091
1491120
1491122
1491149
1491167
1491174
1491224
1491256
1491281
1491298
1491301
1491313
1491319
1491321
1491439
1491440
1491449
1491470
1491473
1491484
1491489
1491502
1491508
1491511
1491525
1491528
1491533
1491563
1491567
1491591
1491601
1491612
1491620
1491640
1491655
1491665
1491674
1491695
1491704
1491725
1491775
1491784
1491824
1491842
1491850
1491857
1491906
1491929
1491948
1491962
1491968
1491975
1492007
1492010
1492028
1492031
1492041
1492044
1492049
1492057
1492063
1492064
1492071
1492078
1492083
1492095
1492099
1492108
1492126
1492135
1492137
1492138
1492142
1492143
1492165
1492176
1492182
1492191
1492193
1492196
1492201
1492204
1492221
1492228
1492231
1492246
1492248
1492277
1492278
1492282
1492285
1492292
1492303
1492310
1492324
1492327
1492332
1492339
1492360
1492368
1492373
1492380
1492387
1492390
1492396
1492397
1492398
1492406
1492425
1492435
1492439
1492450
1492463
1492468
1492479
1492480
1492503
1492504
1492521
1492528
1492529
1492532
1492554
1492567
1492568
1492574
1492576
1492579
1492580
1492582
1492597
1492601
1492613
1492621
1492628
1492631
1492639
1492646
1492652
1492660
1492677
1492683
1492696
1492698
1492700
1492707
1492710
1492711
1492719
1492720
1492724
1492727
1492748
1492754
1492758
1492766
1492783
1492791
1492796
1492809
1492823
1492824
1492827
1492840
1492845
1492855
1492856
1492859
1492861
1492868
1492904
1492918
1492924
1492957
1492962
1492964
1492972
1492990
1493001
1493013
1493023
1493062
1493077
1493110
1493111
1493126
1493139
1493140
1493162
1493192
1493222
1493241
1493245
1493262
1493267
1493275
1493282
1493286
1493288
1493295
1493297
1493316
1493328
1493331
1493336
1493358
1493384
1493395
1493412
1493430
1493440
1493456
1493477
1493487
1493493
1493501
1493506
1493511
1493516
1493547
1493586
1493607
1493624
1493627
1493639
1493646
1493659
1493664
1493665
1493674
1493684
1493724
1493728
1493730
1493732
1493738
1493750
1493752
1493754
1493763
1493766
1493813
1493815
1493878
1493888
1493908
1493912
1493922
1493936
1493955
1493972
1493987
1493998
1494032
1494053
1494067
1494070
1494089
1494119
1494122
1494157
1494169
1494188
1494190
1494194
1494209
1494213
1494226
1494231
1494232
1494243
1494244
1494248
1494293
1494302
1494303
1494307
1494322
1494337
1494353
1494356
1494358
1494365
1494371
1494374
1494404
1494435
1494439
1494454
1494456
1494468
1494475
1494501
1494512
1494517
1494537
1494541
1494602
1494614
1494616
1494621
1494631
1494633
1494642
1494646
1494647
1494655
1494659
1494661
1494705
1494706
1494718
1494722
1494728
1494735
1494745
1494753
1494757
1494765
1494781
1494803
1494805
1494830
1494844
1494854
1494856
1494869
1494873
1494919
1494920
1494923
1494940
1494949
1494951
1494952
1495005
1495008
1495012
1495050
1495057
1495059
1495062
1495076
1495084
1495093
1495101
1495102
1495104
1495127
1495129
1495132
1495155
1495173
1495174
1495177
1495183
1495192
1495216
1495234
1495270
1495298
1495331
1495341
1495345
1495347
1495354
1495397
1495406
1495428
1495451
1495458
1495495
1495499
1495511
1495514
1495518
1495525
1495534
1495554
1495562
1495570
1495578
1495582
1495605
1495607
1495618
1495628
1495633
1495660
1495670
1495685
1495719
1495731
1495745
1495769
1495780
1495791
1495796
1495809
1495810
1495815
1495816
1495827
1495829
1495834
1495847
1495849
1495854
1495866
1495870
1495872
1495876
1495881
1495885
1495902
1495922
1495931
1495934
1495935
1495949
1495959
1495962
1495984
1495986
1495987
1495996
1496002
1496005
1496006
1496023
1496054
1496066
1496072
1496092
1496122
1496126
1496145
1496163
1496164
1496172
1496173
1496206
1496208
1496215
1496243
1496252
1496260
1496262
1496265
1496301
1496321
1496323
1496328
1496351
1496380
1496385
1496399
1496428
1496429
1496495
1496511
1496514
1496541
1496563
1496590
