1433300
1437697
1439861
1439915
1449388
1454867
1457634
1459306
1461890
1474026
1479205
1479449
1495173
1497611
1506567
1525811
1525813
1533862
1541871
1566852
1580566
1614331
1615741
1630221
1637350
1637939
1660696
1674987
1679409
1721369
1725511
1727863
1742355
1742473
1742570
1744781
1745125
1746413
1749704
1750186
1752308
1752386
1753236
1760628
1761351
1761406
1761413
1761414
1761495
1761571
1761585
1761597
1761668
1761692
1761754
1761791
1761823
1761964
1761977
1762087
1762202
1762222
1762230
1762238
1762268
1762364
1762379
1762382
1762440
1762491
1762499
1762538
1762540
1762548
1762569
1762587
1762601
1762658
1762661
1762683
1762694
1762736
1762737
1762743
1762746
1762756
1762764
1762774
1762777
1762784
1762812
1762843
1762863
1762864
1762876
1762914
1762920
1762945
1762992
1763004
1763027
1763057
1763074
1763081
1763125
1763208
1763252
1763263
1763425
1763535
1763560
1763567
1763572
1763672
1763716
1763877
1763940
1764054
1764157
1764170
1764186
1764288
1764323
1764362
1764365
1764486
1764550
1764603
1764627
1764665
1764680
1764727
1764830
1764844
1764846
1764862
1764894
1764896
1764920
1764938
1765112
1765125
1765164
1765177
1765189
1765191
1765209
1765211
1765273
1765313
1765369
1765386
1765422
1765431
1765726
1765924
1765934
1765980
1766057
1766228
1766231
1766238
1766389
1766480
1766547
1766605
1766617
1766644
1766666
1766680
1766690
1766738
1766754
1766805
1766829
1766897
1766965
1767100
1767110
1767113
1767116
1767122
1767138
1767141
1767173
1767181
1767291
1767296
1767337
1767415
1767426
1767566
1767614
1767675
1767688
1767702
1767746
1767749
1767763
1767767
1767790
1767822
1767825
1767859
1767884
1767906
1767943
1768004
1768116
1768167
1768186
1768192
1768269
1768291
1768401
1768448
1768508
1768561
1768734
1768884
1768898
1768899
1768941
1768943
1769011
1769042
1769099
1769138
1769263
1769275
1769292
1769315
1769353
1769360
1769520
1769530
1769541
1769556
1769560
1769627
1769659
1769674
1769705
1769744
1769759
1769760
1769781
1769794
1769858
1769862
1769866
1769867
1770072
1770112
1770113
1770139
1770143
1770175
1770176
1770200
1770211
1770248
1770269
1770301
1770331
1770490
1770545
1770707
1770744
1770765
1770911
1771044
1771053
1771271
1771386
1771448
1771478
1771499
1771544
1771557
1771566
1771581
1771632
1771653
1771688
1771693
1771723
1771742
1771744
1771787
1771814
1771836
1771868
1772008
1772014
1772030
1772036
1772079
1772103
1772127
1772148
1772155
1772239
1772305
1772344
1772410
1772464
1772469
1772476
1772478
1772580
1772637
1772658
1772722
1772738
1772744
1772766
1772805
1772830
1772831
1772838
1772839
1772873
1772984
1773039
1773185
1773207
1773368
1773419
1773441
1773531
1773568
1773581
1773599
1773619
1773688
1773723
1774072
1774157
1774199
1774208
1774214
1774217
1774277
1774318
1774382
1774406
1774407
1774437
1774485
1774545
1774618
1774636
1774663
1774666
1774683
1774705
1774767
1774768
1774769
1774780
1774842
1774894
1774906
1774915
1775029
1775089
1775163
1775210
1775335
1775422
1775478
1775538
1775541
1775593
1775675
1775691
1775918
1775927
1776027
1776089
1776160
1776187
1776189
1776194
1776250
1776275
1776310
1776391
1776399
1776429
1776468
1776560
1776585
1776588
1776641
1776665
1776787
1776803
1776838
1776870
1776885
1776901
1776906
1777068
1777117
1777135
1777169
1777186
1777262
1777300
1777319
1777320
1777345
1777357
1777398
1777421
1777480
1777562
1777575
1777636
1777681
1777737
1777768
1777972
1777997
1778003
1778010
1778082
1778101
1778174
1778252
1778288
1778297
1778307
1778313
1778373
1778375
1778426
1778480
1778518
1778590
1778642
1778709
1778718
1778721
1778757
1778778
1778785
1778823
1778870
1778994
1779003
1779038
1779085
1779087
1779094
1779127
1779172
1779181
1779185
1779188
1779197
1779199
1779208
1779248
1779294
1779337
1779390
1779408
1779415
1779495
1779567
1779586
1779596
1779673
1779692
1779717
1779789
1779799
1779892
1779958
1780031
1780243
1780379
1780619
1780714
1780809
1780820
1780854
1780864
1780973
1781017
1781112
1781115
1781148
1781327
1781590
1781637
1781667
1781708
1781745
1781778
1781795
1781913
1781991
1782008
1782020
1782035
1782246
1782353
1782413
1782584
1782613
1782921
1783119
1783305
1783403
1783503
1783752
1783763
1783816
1783838
1783853
1783909
1784083
1785466
