1437697
1440315
1444948
1497611
1502076
1509582
1524304
1527604
1533663
1533862
1536160
1580566
1586134
1594971
1625934
1630221
1662972
1679301
1698938
1709755
1724505
1772148
1782413
1785466
1794021
1826522
1855938
1895892
1933873
1951686
1954493
1955663
1963601
1964436
1964827
1967358
1967740
1972898
1973218
1973371
1973388
1973406
1973468
1973524
1973604
1973658
1973731
1973756
1973759
1973811
1973879
1973905
1973910
1973914
1973924
1973963
1973992
1973993
1974053
1974056
1974075
1974083
1974093
1974106
1974123
1974189
1974193
1974204
1974217
1974236
1974261
1974372
1974379
1974384
1974542
1974574
1974641
1974694
1974779
1974831
1974951
1974991
1975018
1975065
1975076
1975216
1975244
1975310
1975394
1975402
1975404
1975434
1975459
1975514
1975619
1975672
1975707
1975719
1975734
1975927
1975930
1975984
1975988
1976027
1976028
1976060
1976134
1976233
1976243
1976276
1976279
1976395
1976459
1976551
1976554
1976588
1976594
1976599
1976631
1976640
1976657
1976677
1976927
1976993
1977049
1977085
1977118
1977125
1977142
1977170
1977172
1977363
1977485
1977491
1977718
1977788
1977847
1977868
1977921
1977925
1978422
1978458
1978478
1978569
1978570
1978603
1978651
1978691
1978806
1979054
1979055
1979144
1979173
1979176
1979349
1979384
1979513
1979555
1979656
1979667
1979723
1979725
1979801
1979841
1979989
1980005
1980024
1980053
1980103
1980223
1980287
1980349
1980399
1980473
1980729
1980805
1980898
1980965
1980971
1980990
1981030
1981043
1981052
1981067
1981094
1981204
1981372
1981414
1981459
1981545
1981630
1981688
1981755
1981784
1981857
1981956
1981970
1981979
1981991
1982277
1982288
1982377
1982408
1982494
1982621
1982627
1982817
1982829
1982918
1982940
1982964
1982981
1982996
1983025
1983059
1983070
1983087
1983109
1983188
1983259
1983397
1983431
1983448
1983474
1983515
1983534
1983569
1983640
1983751
1983778
1983838
1983853
1983875
1983906
1983909
1983936
1983980
1984067
1984089
1984145
1984151
1984186
1984207
1984376
1984388
1984523
1984739
1984792
1984909
1984958
1984961
1984985
1985045
1985059
1985170
1985269
1985326
1985333
1985368
1985370
1985388
1985444
1985452
1985477
1985541
1985557
1985651
1985686
1985696
1985700
1985707
1985720
1985723
1985787
1985804
1985889
1985908
1985974
1985999
1986035
1986115
1986137
1986140
1986165
1986400
1986441
1986587
1986722
1986846
1986849
1986851
1986946
1987091
1987225
1987239
1987272
1987346
1987354
1987625
1987649
1987713
1987850
1987887
1987941
1988027
1988200
1988218
1988248
1988358
1988542
1988760
1988795
1988823
1988883
1988932
1988941
1989102
1989103
1989133
1989138
1989161
1989198
1989201
1989218
1989227
1989250
1989294
1989376
1989471
1989478
1989504
1989512
1989580
1989634
1989636
1989650
1989667
1989697
1989741
1990258
1990279
1990295
1990317
1990598
1990648
1990665
1990917
1990929
1990968
1991028
1991034
1991036
1991372
1991400
1991408
1991463
1991544
1991556
1991567
1991624
1991771
1991932
1991953
1992036
1992149
1992416
1992437
1992593
1992693
1992821
1992850
1992883
1992893
1992944
1993095
1993112
1993139
1993148
1993215
1993233
1993253
1993255
1993317
1993591
1993633
1993831
1993900
1993948
1993967
1994082
1994214
1994225
1994256
1994264
1994291
1994323
1994406
1994462
1994464
1994477
1994484
1994502
1994558
1994572
1994587
1994897
1994912
1994979
1995108
1995331
1995510
1995573
1995604
1995737
1995849
1995854
1995877
1995934
1995939
1996026
1996059
1996068
1996070
1996264
1996361
1996380
1996428
1996572
1996578
1996903
1996969
1997080
1997126
1997163
1997194
1997227
1997373
1997422
1997441
1997465
1997494
1997836
1997921
1997933
1997980
1998034
1998099
1998161
1998171
1998172
1998254
1998282
1998441
1998456
1998512
1998609
1998642
1998656
1998692
1998804
1998938
1999106
1999192
1999212
1999273
1999324
1999357
1999372
1999395
1999489
1999527
1999625
1999649
1999757
1999842
1999858
1999955
1999986
2000079
2000098
2000104
2000226
2000232
2000255
2000329
2000396
2000448
2000550
2000621
2000727
2000797
2000985
2000987
2001107
2001118
2001219
2001244
2001336
2001395
2001509
2001522
2001538
2001721
2001779
2001802
2002310
2002323
2002460
2002535
2002604
2002618
2002736
2002868
2002875
2002877
2002906
2002908
