1497611
1517819
1517823
1517828
1517830
1518546
1533862
1627875
1630221
1651334
1651336
1651388
1651400
1651423
1651444
1651445
1651466
1651471
1651478
1651499
1651516
1651526
1651527
1651534
1651544
1651548
1651581
1651624
1651628
1651629
1651641
1651664
1651668
1651692
1651720
1651741
1651746
1651748
1651758
1651790
1651810
1651870
1651906
1651907
1651912
1651915
1651918
1651921
1651933
1651954
1651987
1652009
1652011
1652042
1652075
1652083
1652104
1652149
1652172
1652173
1652174
1652183
1652235
1652294
1652314
1652316
1652339
1652359
1652405
1652406
1652407
1652410
1652419
1652443
1652446
1652448
1652465
1652473
1652488
1652548
1652572
1652583
1652587
1652606
1652609
1652637
1652660
1652719
1652756
1652769
1652792
1652824
1652846
1652862
1652871
1652930
1652966
1652977
1652980
1652998
1653008
1653009
1653012
1653038
1653042
1653048
1653071
1653098
1653103
1653118
1653124
1653161
1653166
1653197
1653207
1653229
1653236
1653254
1653259
1653281
1653293
1653341
1653356
1653368
1653371
1653415
1653446
1653474
1653488
1653494
1653513
1653531
1653554
1653579
1653661
1653664
1653666
1653684
1653688
1653697
1653702
1653707
1653713
1653727
1653743
1653746
1653753
1653825
1653827
1653834
1653861
1653865
1653886
1653911
1653961
1653964
1653977
1654073
1654080
1654085
1654111
1654136
1654269
1654349
1654376
1654386
1654402
1654502
1654513
1654557
1654564
1654587
1654590
1654598
1654606
1654617
1654634
1654642
1654718
1654738
1654740
1654785
1654795
1654796
1654831
1654840
1654846
1654853
1654856
1654917
1654955
1654988
1654999
1655017
1655035
1655056
1655113
1655135
1655183
1655254
1655300
1655350
1655363
1655396
1655399
1655408
1655425
1655429
1655469
1655477
1655536
1655541
1655555
1655556
1655596
1655625
1655634
1655645
1655719
1655741
1655755
1655832
1655900
1655945
1655954
1655980
1655983
1655991
1656057
1656063
1656087
1656092
1656099
1656118
1656149
1656155
1656162
1656164
1656178
1656188
1656189
1656190
1656219
1656235
1656240
1656257
1656312
1656313
1656334
1656338
1656370
1656390
1656408
1656412
1656421
1656424
1656454
1656462
1656463
1656490
1656499
1656509
1656512
1656519
1656521
1656529
1656540
1656547
1656555
1656559
1656596
1656597
1656611
1656616
1656624
1656638
1656641
1656661
1656691
1656705
1656709
1656724
1656730
1656767
1656798
1656807
1656822
1656831
1656833
1656872
1657041
1657042
1657106
1657148
1657161
1657168
1657192
1657226
1657271
1657274
1657328
1657338
1657397
1657412
1657423
1657431
1657466
1657507
1657544
1657559
1657602
1657606
1657653
1657670
1657679
1657710
1657717
1657718
1657726
1657750
1657777
1657812
1657881
1657889
1657968
1657970
1658001
1658020
1658121
1658164
1658169
1658210
1658222
1658254
1658256
1658271
1658328
1658332
1658337
1658356
1658368
1658410
1658472
1658477
1658533
1658593
1658619
1658661
1658666
1658667
1658679
1658685
1658703
1658743
1658750
1658773
1658775
1658833
1658838
1658846
1658869
1658880
1658896
1658918
1658938
1658973
1658975
1658982
1658998
1659025
1659026
1659034
1659097
1659099
1659104
1659116
1659136
1659157
1659163
1659170
1659200
1659205
1659245
1659255
1659264
1659294
1659311
1659347
1659353
1659359
1659382
1659388
1659399
1659428
1659516
1659536
1659560
1659573
1659580
1659588
1659595
1659613
1659638
1659646
1659669
1659671
1659684
1659752
1659792
1659832
1659845
1659853
1659855
1659893
1659906
1659931
1659952
1660016
1660044
1660062
1660073
1660075
1660089
1660093
1660108
1660131
1660193
1660252
1660255
1660310
1660341
1660345
1660354
1660390
1660398
1660400
1660414
1660447
1660473
1660522
1660537
1660575
1660585
1660617
1660661
1660696
1660722
1660752
1660754
1660765
1660794
1660831
1660875
1660889
1660908
1660917
1660934
1660943
1660958
1660960
1660968
1660975
1660979
1660981
1660982
1660994
1661008
1661021
1661038
1661047
1661156
1661171
1661204
1661235
1661257
1661259
1661271
1661273
1661274
1661315
1661331
1661332
1661335
