1477089
1497611
1517819
1517823
1517828
1517830
1533862
1630221
1677795
1677797
1677815
1677826
1677859
1677864
1677880
1677914
1677925
1677964
1678072
1678093
1678103
1678114
1678297
1678367
1678371
1678419
1678426
1678464
1678495
1678527
1678544
1678614
1678708
1678717
1678721
1678736
1678780
1678812
1678906
1678928
1679118
1679174
1679221
1679241
1679293
1679301
1679306
1679317
1679318
1679351
1679387
1679402
1679409
1679430
1679461
1679469
1679503
1679518
1679545
1679590
1679658
1679659
1679686
1679742
1679753
1679768
1679811
1679813
1679819
1679822
1679826
1679851
1679854
1679862
1679886
1679896
1679906
1679965
1679985
1679993
1680050
1680057
1680103
1680182
1680223
1680245
1680278
1680295
1680365
1680434
1680449
1680483
1680579
1680618
1680752
1680763
1680766
1680771
1680776
1680848
1680863
1680881
1680935
1680953
1680964
1680988
1681012
1681028
1681084
1681087
1681088
1681104
1681107
1681119
1681156
1681158
1681160
1681177
1681224
1681240
1681259
1681289
1681307
1681356
1681361
1681408
1681488
1681492
1681499
1681500
1681592
1681626
1681627
1681639
1681641
1681666
1681669
1681684
1681690
1681699
1681738
1681750
1681761
1681809
1681847
1681848
1681852
1681894
1681920
1681936
1682057
1682076
1682095
1682129
1682131
1682194
1682244
1682247
1682275
1682325
1682328
1682342
1682347
1682363
1682374
1682385
1682399
1682404
1682409
1682413
1682414
1682421
1682432
1682440
1682511
1682535
1682564
1682571
1682579
1682585
1682594
1682596
1682699
1682701
1682729
1682731
1682744
1682765
1682769
1682784
1682797
1682802
1682805
1682808
1682814
1682825
1682826
1682837
1682838
1682850
1682862
1682872
1682881
1682952
1682982
1683036
1683079
1683116
1683124
1683132
1683142
1683246
1683281
1683317
1683337
1683348
1683402
1683430
1683434
1683443
1683444
1683449
1683483
1683484
1683507
1683521
1683525
1683554
1683555
1683681
1683690
1683698
1683743
1683761
1683879
1683883
1683943
1684030
1684075
1684105
1684113
1684126
1684167
1684168
1684169
1684195
1684199
1684223
1684242
1684310
1684330
1684348
1684357
1684368
1684369
1684379
1684410
1684458
1684481
1684482
1684484
1684527
1684564
1684576
1684578
1684593
1684621
1684670
1684675
1684688
1684703
1684714
1684764
1684803
1684876
1684945
1684952
1684986
1685131
1685151
1685155
1685160
1685190
1685217
1685232
1685272
1685274
1685281
1685334
1685375
1685460
1685480
1685537
1685574
1685596
1685603
1685604
1685614
1685688
1685814
1685861
1685882
1685946
1685956
1685980
1686097
1686203
1686215
1686274
1686287
1686308
1686368
1686420
1686456
1686512
1686574
1686589
1686602
1686617
1686646
1686653
1686656
1686657
1686659
1686689
1686716
1686743
1686763
1686806
1686925
1686999
1687021
1687035
1687045
1687055
1687065
1687086
1687112
1687124
1687137
1687168
1687170
1687173
1687197
1687249
1687332
1687333
1687354
1687385
1687446
1687477
1687489
1687523
1687537
1687543
1687552
1687612
1687622
1687674
1687683
1687734
1687778
1687799
1687866
1687878
1687888
1687889
1687906
1687918
1687957
1688029
1688038
1688044
1688050
1688081
1688107
1688114
1688139
1688158
1688190
1688199
1688211
1688217
1688224
1688246
1688257
1688263
1688325
1688395
1688403
1688414
1688418
1688453
1688488
1688548
1688555
1688580
1688582
1688672
1688724
1688772
1688814
1688816
1688858
1688881
1688909
1688926
1688954
1689045
1689053
1689058
1689082
1689096
1689142
1689144
1689165
1689214
1689228
1689236
1689287
1689364
1689402
1689416
1689424
1689445
1689476
1689477
1689503
1689566
1689577
1689580
1689592
1689612
1689622
1689661
1689673
1689676
1689684
1689704
1689771
1689773
1689779
1689867
1689878
1689887
1689915
1690002
1690132
1690225
1690239
1690261
1690278
1690285
1690292
1690321
1690354
1690364
1690383
1690455
1690461
1690462
1690548
1690581
1690595
1690600
1690619
1690628
1690639
1690652
1690666
1690685
1690693
1690700
1690705
1690706
1690729
1690749
1690764
1690767
1690782
1690787
1690808
1690811
