1436568
1445230
1450902
1480814
1480845
1481408
1497611
1518566
1532877
1533862
1580566
1587762
1590391
1592739
1597527
1630221
1656638
1678419
1704001
1755301
1762087
1764627
1769674
1782413
1785466
1794508
1826522
1832369
1881388
1882849
1904044
1909343
1909985
1913239
1927365
1943013
1951855
1969613
1973905
1974075
1991953
1993900
1994082
1994502
1997980
2001118
2008433
2013744
2029702
2033103
2035032
2037299
2041891
2041915
2042045
2042051
2042328
2042396
2042502
2042563
2042800
2042853
2042994
2043070
2043154
2043156
2043228
2043295
2043318
2043565
2043578
2043615
2043660
2043705
2043734
2043768
2043879
2044140
2044150
2044161
2044171
2044221
2044401
2044443
2044488
2044552
2044606
2044609
2044685
2044752
2044814
2044821
2044856
2044900
2044902
2045065
2045081
2045118
2045324
2045560
2045673
2045737
2045740
2045759
2045768
2045789
2045867
2045973
2046227
2046305
2046332
2046352
2046365
2046379
2046405
2046445
2046571
2046753
2046773
2046981
2046991
2047000
2047041
2047083
2047139
2047352
2047423
2047451
2047474
2047494
2047546
2047880
2047896
2047921
2047957
2047963
2048057
2048058
2048090
2048105
2048169
2048214
2048253
2048256
2048555
2048646
2048648
2048685
2048715
2048740
2048746
2049194
2049218
2049237
2049310
2049375
2049530
2049557
2049622
2049703
2049706
2049715
2049722
2050218
2050394
2050498
2050514
2050675
2050721
2050893
2050946
2050972
2050979
2051044
2051102
2051179
2051186
2051201
2051232
2051240
2051306
2051492
2051580
2051613
2051751
2051824
2051836
2051843
2052053
2052061
2052227
2052267
2052288
2052457
2052674
2052850
2052851
2052914
2053008
2053029
2053064
2053092
2053098
2053255
2053329
2053567
2053742
2053820
2053934
2053936
2054074
2054176
2054177
2054204
2054239
2054245
2054273
2054355
2054475
2054740
2054873
2054985
2055064
2055229
2055263
2055267
2055303
2055391
2055448
2055518
2055564
2055597
2055719
2055825
2055855
2056069
2056097
2056179
2056223
2056237
2056309
2056346
2056356
2056405
2056418
2056473
2056480
2056692
2056854
2056942
2056983
2057058
2057088
2057103
2057142
2057146
2057150
2057310
2057700
2057771
2057928
2057950
2058107
2058187
2058252
2058280
2058303
2058425
2058438
2058633
2058715
2058717
2058772
2058948
2059047
2059391
2059457
2059458
2059787
2059862
2059891
2060023
2060300
2060311
2060315
2060381
2060395
2060461
2060473
2060609
2060829
2060901
2060979
2060989
2061031
2061102
2061184
2061426
2061506
2061514
2061714
2061794
2062065
2062151
2062190
2062195
2062423
2062435
2062454
2062463
2062507
2062747
2062788
2063003
2063189
2063504
2063559
2063582
2063694
2063874
2063964
2064043
2064050
2064215
2064403
2064456
2064588
2064791
2064811
2064891
2064955
2064985
2065035
2065054
2065555
2065743
2066164
2066200
2066437
2066966
2066973
2067018
2067131
2067166
2067183
2067271
2067353
2067374
2067402
2067478
2067872
2068205
2068595
2068813
2069072
2069473
2069506
2069510
2069535
2069583
2069607
2070065
2070100
2070391
2070422
2070763
2070996
2071121
2071258
2071382
2071471
2071532
2071540
2071638
2071656
2071680
2071977
2072057
2072450
2072611
2072612
2072620
2072643
2072699
2072731
2072780
2072925
2072930
2073066
2073136
2073483
2074301
2074574
2074598
2074650
2074666
2074780
2074887
2074932
2075455
2075802
2075818
2076225
2076265
2076448
2076507
2076641
2077401
2077418
2077555
2077653
2077935
2077981
2078130
2078193
2078238
2078240
2078260
2078525
2078662
2078674
2078864
2078929
2079147
2079152
2079227
2079609
2079627
2079679
2079704
2079741
2079789
2079791
2079916
2080617
2080795
2080840
2080971
2081051
2081446
2081526
2081614
2081793
2081831
2081882
2082058
2082159
2082165
2082218
2082403
2082451
2082475
2082491
2082500
2082696
2082837
2082913
2082928
2083000
2083037
2083110
2083158
2083252
2083262
2083403
2083418
2083576
2083578
2083657
2083682
2083835
2083853
2083903
2084070
2084140
2084166
2084176
2084250
2084362
2084523
2084590
2084753
2084816
2084894
2084995
2085039
2085067
2085155
2085436
2085571
2085622
2085725
2085988
2086055
2086166
2086349
2086623
2086703
2086828
2086905
2086927
2086949
2087064
2087150
2087219
2087230
2087238
2087380
2087760
2087784
2087860
2087928
2087946
2088040
2088292
2088367
2088560
2088656
2088712
2088783
2089061
2089082
2089117
2089222
2089236
2089292
2089605
2089665
2089718
2089885
2089957
