1458452
1497611
1517819
1517823
1517828
1517830
1518546
1533862
1541871
1555767
1555772
1555780
1555785
1555786
1556090
1556140
1556209
1556942
1557087
1557151
1557178
1557231
1557331
1557424
1557498
1557513
1557555
1557593
1557875
1557903
1557927
1557930
1558095
1558279
1558300
1558508
1558521
1558591
1558712
1558757
1558800
1558819
1558922
1558936
1558938
1559136
1559180
1559217
1559225
1559287
1559541
1559566
1559575
1559703
1559814
1559827
1559932
1559962
1560037
1560088
1560304
1560452
1560488
1560548
1560561
1560616
1560629
1560701
1560717
1560743
1560832
1560864
1560913
1560922
1560937
1561080
1561097
1561147
1561169
1561189
1561205
1561216
1561226
1561245
1561289
1561290
1561297
1561390
1561423
1561427
1561431
1561458
1561459
1561460
1561469
1561478
1561491
1561502
1561617
1561633
1561649
1561703
1561739
1561764
1561822
1561842
1561903
1561941
1561946
1561988
1562005
1562047
1562211
1562363
1562368
1562381
1562444
1562499
1562745
1562759
1562837
1562850
1562941
1562949
1562954
1562958
1562962
1562981
1562988
1563048
1563064
1563093
1563198
1563237
1563387
1563397
1563417
1563450
1563480
1563507
1563511
1563591
1563636
1563708
1563735
1563955
1564085
1564162
1564228
1564229
1564248
1564280
1564289
1564356
1564372
1564408
1564444
1564473
1564521
1564597
1564617
1564621
1564687
1564831
1564893
1564906
1564937
1565031
1565069
1565098
1565259
1565412
1565434
1565484
1565491
1565494
1565496
1565573
1565729
1565742
1565764
1565830
1565836
1565857
1565887
1565897
1565949
1565968
1565988
1566148
1566297
1566394
1566578
1566644
1566940
1566968
1567023
1567168
1567335
1567338
1567422
1567458
1567486
1567620
1567621
1567630
1567867
1568005
1568042
1568106
1568178
1568303
1568304
1568336
1568356
1568439
1568506
1568524
1568533
1568575
1568583
1568686
1568918
1569170
1569388
1569413
1569476
1569688
1569693
1569702
1569704
1569718
1569728
1569731
1569789
1569810
1569816
1569821
1569847
1569858
1569872
1569921
1569956
1570057
1570076
1570079
1570094
1570097
1570198
1570250
1570327
1570328
1570385
1570485
1570543
1570552
1570557
1570631
1570736
1570809
1570824
1570859
1570874
1570882
1570886
1570915
1570943
1571034
1571056
1571254
1571280
1571358
1571361
1571468
1571523
1571565
1571602
1571682
1571766
1571921
1571957
1572234
1572253
1572272
1572297
1572333
1572535
1572563
1572594
1572613
1572625
1572817
1572918
1572933
1572997
1573006
1573019
1573030
1573301
1573323
1573411
1573415
1573421
1573424
1573431
1573451
1573453
1573455
1573457
1573499
1573542
1573590
1573608
1573620
1573627
1573630
1573669
1573675
1573728
1573734
1573738
1573824
1573867
1573913
1574057
1574081
1574252
1574338
1574357
1574385
1574409
1574464
1574481
1574514
1574538
1574610
1574638
1574706
1574726
1574734
1574753
1574791
1574891
1575009
1575017
1575058
1575086
1575102
1575135
1575142
1575158
1575256
1575522
1575556
1575571
1575612
1575667
1575753
1575804
1575825
1575845
1575875
1575880
1575910
1575960
1575970
1575976
1576012
1576050
1576103
1576209
1576226
1576235
1576249
1576294
1576495
1576705
1576712
1576829
1576971
1577049
1577142
1577190
1577217
1577235
1577311
1577327
1577353
1577447
1577512
1577516
1577533
1577593
1577607
1577659
1577680
1577759
1577855
1577897
1577913
1577985
1578019
1578264
1578376
1578409
1578417
1578428
1578465
1578479
1578520
1578544
1578555
1578600
1578611
1578625
1578796
1578811
1578828
1578883
1578940
1579035
1579039
1579056
1579067
1579073
1579093
1579098
1579101
1579159
1579171
1579229
1579249
1579272
1579302
1579501
1579651
1579806
1579884
1580026
1580224
1580263
1580363
1580394
1580424
1580458
1580486
1580489
1580490
1580540
1580564
1580566
1580617
1580689
1580870
1580885
1580968
1581001
1581004
1581015
1581334
1581519
1581659
1581678
1581748
1581769
1581830
1581890
1582226
1582303
1582406
1582449
1582598
1582644
1582672
1582713
1582863
1582967
1583048
1583166
1583224
1583251
1583262
1583284
1583289
