1497611
1517819
1517823
1517828
1517830
1518546
1533862
1627875
1630221
1646845
1646865
1646883
1646899
1646904
1646907
1646912
1646930
1646934
1646952
1646971
1646976
1646994
1647007
1647015
1647016
1647019
1647034
1647035
1647044
1647056
1647059
1647084
1647108
1647131
1647135
1647151
1647157
1647160
1647203
1647206
1647227
1647289
1647302
1647347
1647409
1647479
1647488
1647492
1647493
1647535
1647536
1647547
1647597
1647659
1647677
1647719
1647746
1647749
1647760
1647795
1647807
1647816
1647817
1647836
1647849
1647926
1647932
1647944
1647958
1647973
1648006
1648008
1648018
1648024
1648162
1648167
1648255
1648270
1648341
1648437
1648484
1648637
1648641
1648643
1648649
1648658
1648673
1648716
1648723
1648743
1648751
1648816
1648821
1648847
1648927
1648980
1648987
1649000
1649008
1649013
1649014
1649024
1649088
1649109
1649137
1649154
1649187
1649253
1649301
1649311
1649335
1649336
1649340
1649341
1649348
1649372
1649410
1649449
1649451
1649457
1649506
1649510
1649586
1649608
1649621
1649623
1649630
1649633
1649670
1649671
1649672
1649678
1649695
1649707
1649708
1649709
1649736
1649751
1649752
1649758
1649785
1649791
1649800
1649802
1649809
1649827
1649843
1649853
1649869
1649878
1649917
1649930
1649935
1649942
1649947
1649966
1650032
1650038
1650082
1650091
1650134
1650153
1650162
1650171
1650206
1650235
1650246
1650275
1650276
1650319
1650324
1650333
1650386
1650429
1650436
1650441
1650459
1650468
1650477
1650483
1650504
1650506
1650509
1650517
1650518
1650526
1650535
1650593
1650606
1650656
1650686
1650713
1650755
1650782
1650793
1650817
1650848
1650850
1650869
1650872
1650921
1650925
1650967
1651020
1651021
1651045
1651088
1651120
1651256
1651279
1651306
1651334
1651336
1651388
1651400
1651423
1651444
1651445
1651466
1651471
1651478
1651499
1651516
1651526
1651527
1651534
1651544
1651548
1651581
1651624
1651628
1651629
1651641
1651664
1651668
1651692
1651720
1651741
1651746
1651748
1651758
1651790
1651810
1651870
1651906
1651907
1651912
1651915
1651918
1651921
1651933
1651954
1651987
1652009
1652011
1652042
1652075
1652083
1652104
1652149
1652172
1652173
1652174
1652183
1652235
1652294
1652314
1652316
1652339
1652359
1652405
1652406
1652407
1652410
1652419
1652443
1652446
1652448
1652465
1652473
1652488
1652548
1652572
1652583
1652587
1652606
1652609
1652637
1652660
1652719
1652756
1652769
1652792
1652824
1652846
1652862
1652871
1652930
1652966
1652977
1652980
1652998
1653008
1653009
1653012
1653038
1653042
1653048
1653071
1653098
1653103
1653118
1653124
1653161
1653166
1653197
1653207
1653229
1653236
1653254
1653259
1653281
1653293
1653341
1653356
1653368
1653371
1653415
1653446
1653474
1653488
1653494
1653513
1653531
1653554
1653579
1653661
1653664
1653666
1653684
1653688
1653697
1653702
1653707
1653713
1653727
1653743
1653746
1653753
1653825
1653827
1653834
1653861
1653865
1653886
1653911
1653961
1653964
1653977
1654073
1654080
1654085
1654111
1654136
1654269
1654349
1654376
1654386
1654402
1654502
1654513
1654557
1654564
1654587
1654590
1654598
1654606
1654617
1654634
1654642
1654718
1654738
1654740
1654785
1654795
1654796
1654831
1654840
1654846
1654853
1654856
1654917
1654955
1654988
1654999
1655017
1655035
1655056
1655090
1655113
1655135
1655183
1655254
1655300
1655350
1655363
1655396
1655399
1655408
1655425
1655429
1655469
1655477
1655536
1655541
1655555
1655556
1655596
1655625
1655634
1655645
1655719
1655741
1655755
1655832
1655900
1655945
1655954
1655980
1655983
1655991
1656057
1656063
1656087
1656092
1656099
1656118
1656149
1656155
1656162
1656164
1656178
1656188
1656189
1656190
1656219
1656235
1656240
1656257
1656312
1656313
1656334
1656338
1656370
1656390
1656408
1656412
1656421
1656422
1656424
1656454
1656462
1656463
1656490
1656499
1656509
1656512
1656519
1656521
1656529
1656540
1656547
1656555
1656559
1656596
1656597
1656611
1656616
1656624
1656638
1656641
1656661
1656691
1656705
