1439861
1457634
1459306
1461890
1474026
1479205
1497611
1506567
1525811
1533862
1536160
1549277
1549572
1580566
1619641
1624197
1630221
1637350
1674987
1676851
1693048
1721369
1739893
1742570
1744781
1746413
1747822
1750186
1753003
1753080
1753236
1753421
1753683
1753738
1753753
1753767
1753776
1753798
1753799
1753801
1753808
1753816
1753819
1753831
1753851
1753887
1753894
1753910
1754005
1754052
1754070
1754082
1754108
1754138
1754158
1754163
1754177
1754199
1754207
1754280
1754345
1754401
1754414
1754452
1754458
1754550
1754556
1754578
1754635
1754649
1754684
1754686
1754704
1754746
1754846
1754922
1754924
1754943
1755053
1755058
1755085
1755087
1755090
1755093
1755108
1755111
1755173
1755178
1755281
1755301
1755329
1755367
1755399
1755406
1755425
1755444
1755456
1755477
1755495
1755520
1755524
1755594
1755614
1755745
1755777
1755838
1755842
1755860
1755924
1755936
1755975
1755994
1756009
1756069
1756085
1756147
1756175
1756214
1756276
1756304
1756347
1756426
1756442
1756514
1756550
1756554
1756556
1756597
1756623
1756689
1756756
1756763
1756784
1756795
1756840
1756976
1757043
1757084
1757227
1757261
1757450
1757453
1757472
1757555
1757586
1757694
1757745
1757769
1757853
1757968
1758023
1758122
1758209
1758214
1758285
1758321
1758427
1758507
1758556
1758600
1758606
1758623
1758628
1758803
1758818
1758830
1758846
1758873
1758876
1758935
1758943
1758961
1759066
1759073
1759190
1759258
1759294
1759468
1759488
1759593
1759694
1759762
1759766
1759774
1759802
1759895
1759953
1760000
1760040
1760085
1760097
1760100
1760107
1760113
1760145
1760197
1760204
1760234
1760255
1760258
1760264
1760274
1760289
1760396
1760502
1760524
1760549
1760573
1760576
1760610
1760617
1760628
1760668
1760698
1760757
1760766
1760778
1760795
1760802
1760844
1760855
1760863
1760915
1760928
1760942
1760973
1761016
1761034
1761063
1761065
1761152
1761212
1761219
1761238
1761242
1761280
1761338
1761351
1761406
1761413
1761414
1761495
1761571
1761585
1761597
1761668
1761692
1761754
1761791
1761823
1761964
1761977
1762087
1762202
1762222
1762230
1762238
1762268
1762364
1762379
1762382
1762440
1762491
1762499
1762538
1762540
1762548
1762569
1762587
1762601
1762658
1762661
1762683
1762694
1762736
1762737
1762743
1762746
1762756
1762764
1762774
1762777
1762784
1762812
1762843
1762863
1762864
1762876
1762914
1762920
1762945
1762992
1763004
1763027
1763057
1763074
1763081
1763125
1763208
1763252
1763263
1763425
1763535
1763560
1763567
1763572
1763672
1763716
1763877
1763940
1764054
1764157
1764170
1764186
1764288
1764323
1764362
1764365
1764486
1764550
1764603
1764627
1764665
1764680
1764727
1764830
1764844
1764846
1764862
1764894
1764896
1764920
1764938
1765112
1765125
1765164
1765177
1765189
1765191
1765209
1765211
1765273
1765313
1765369
1765386
1765422
1765431
1765726
1765924
1765934
1765980
1766057
1766228
1766231
1766238
1766389
1766480
1766547
1766605
1766617
1766644
1766666
1766680
1766690
1766738
1766754
1766805
1766829
1766897
1766965
1767100
1767110
1767113
1767116
1767122
1767138
1767141
1767173
1767181
1767291
1767296
1767337
1767415
1767426
1767566
1767589
1767605
1767614
1767675
1767688
1767702
1767746
1767749
1767763
1767767
1767790
1767822
1767825
1767859
1767884
1767906
1767943
1768004
1768116
1768167
1768186
1768192
1768269
1768291
1768401
1768448
1768495
1768504
1768508
1768561
1768734
1768884
1768898
1768899
1768941
1768943
1769011
1769042
1769044
1769099
1769138
1769263
1769275
1769292
1769315
1769353
1769360
1769520
1769530
1769541
1769556
1769560
1769627
1769659
1769674
1769705
1769744
1769759
1769760
1769781
1769794
1769858
1769862
1769866
1769867
1770072
1770112
1770113
1770139
1770143
1770175
1770176
1770200
1770211
1770248
1770269
1770301
1770331
1770490
1770545
1770707
1770744
1770765
1770911
1771044
1771053
1771271
1771386
1771448
1771478
1771499
1771544
1771557
1771566
1771581
1771632
1771653
1771688
1771693
1771723
1771742
1771744
1771787
1771814
1771836
1771868
1772008
1772014
1772030
1772036
1772079
1772103
1772127
1772148
1772155
1772239
1772305
1772344
1772410
1772464
1772469
1772476
1772478
1772580
1772637
1772658
