1434672
1443740
1449130
1466894
1467885
1467888
1469844
1476468
1476547
1477610
1479493
1482030
1485595
1496380
1497954
1497962
1497968
1497976
1497980
1497981
1497990
1497996
1498003
1498017
1498035
1498057
1498072
1498074
1498083
1498092
1498096
1498098
1498117
1498127
1498165
1498175
1498178
1498183
1498196
1498207
1498211
1498213
1498225
1498242
1498255
1498257
1498263
1498288
1498300
1498302
1498313
1498350
1498358
1498408
1498431
1498435
1498437
1498457
1498469
1498473
1498475
1498476
1498485
1498491
1498510
1498514
1498523
1498539
1498546
1498564
1498568
1498577
1498590
1498592
1498607
1498627
1498628
1498637
1498641
1498643
1498650
1498655
1498656
1498657
1498661
1498670
1498678
1498686
1498697
1498701
1498711
1498719
1498724
1498725
1498736
1498740
1498749
1498751
1498752
1498753
1498760
1498826
1498827
1498838
1498848
1498849
1498871
1498884
1498899
1498974
1498977
1499016
1499021
1499043
1499071
1499087
1499089
1499090
1499113
1499124
1499133
1499141
1499143
1499148
1499155
1499158
1499166
1499171
1499199
1499211
1499213
1499221
1499222
1499252
1499256
1499259
1499263
1499268
1499276
1499278
1499288
1499291
1499304
1499305
1499315
1499318
1499325
1499326
1499328
1499335
1499346
1499362
1499369
1499375
1499376
1499379
1499381
1499389
1499393
1499401
1499405
1499407
1499421
1499481
1499488
1499501
1499504
1499505
1499512
1499516
1499519
1499527
1499530
1499532
1499539
1499556
1499559
1499565
1499600
1499606
1499608
1499613
1499619
1499644
1499651
1499665
1499671
1499675
1499689
1499704
1499722
1499804
1499805
1499820
1499821
1499837
1499847
1499852
1499862
1499872
1499909
1499918
1499926
1499928
1499937
1499946
1499964
1499978
1499981
1499990
1500011
1500054
1500076
1500090
1500097
1500099
1500103
1500106
1500113
1500147
1500162
1500169
1500193
1500196
1500201
1500217
1500251
1500253
1500282
1500285
1500296
1500304
1500308
1500310
1500313
1500330
1500339
1500343
1500364
1500372
1500379
1500429
1500445
1500451
1500454
1500478
1500479
1500493
1500510
1500523
1500547
1500551
1500558
1500589
1500631
1500640
1500649
1500651
1500652
1500655
1500663
1500666
1500668
1500677
1500693
1500712
1500723
1500727
1500730
1500734
1500735
1500755
1500769
1500787
1500790
1500793
1500800
1500801
1500804
1500811
1500817
1500818
1500819
1500852
1500855
1500869
1500874
1500895
1500898
1500910
1500912
1500914
1500918
1500925
1500930
1500939
1500952
1500953
1500983
1501000
1501007
1501011
1501038
1501043
1501045
1501052
1501059
1501066
1501085
1501099
1501104
1501138
1501152
1501163
1501172
1501184
1501222
1501257
1501290
1501305
1501363
1501404
1501405
1501421
1501430
1501445
1501503
1501509
1501515
1501516
1501527
1501556
1501563
1501569
1501573
1501584
1501634
1501662
1501678
1501728
1501751
1501784
1501800
1501808
1501810
1501869
1501882
1501924
1501949
1502056
1502076
1502095
1502099
1502125
1502174
1502196
1502206
1502208
1502218
1502265
1502287
1502289
1502298
1502316
1502378
1502466
1502484
1502505
1502530
1502555
1502591
1502605
1502606
1502634
1502640
1502646
1502693
1502732
1502757
1502822
1502844
1502871
1502893
1502923
1502930
1502936
1502945
1502956
1502959
1502972
1503050
1503054
1503072
1503079
1503087
1503097
1503120
1503167
1503199
1503200
1503208
1503209
1503226
1503255
1503271
1503272
1503283
1503290
1503292
1503301
1503336
1503342
1503361
1503367
1503368
1503369
1503396
1503397
1503409
1503413
1503420
1503423
1503439
1503443
1503456
1503457
1503466
1503523
1503536
1503537
1503542
1503546
1503547
1503573
1503653
1503665
1503676
1503692
1503715
1503721
1503726
1503727
1503731
1503756
1503758
1503759
1503795
1503798
1503800
1503814
1503818
1503829
1503837
1503839
1503851
1503852
1503859
1503865
1503866
1503874
1503877
1503883
1503885
1503916
1503919
1503922
1503928
1503932
1503943
1503959
1503968
1504006
1504013
1504014
1504015
1504016
1504034
1504050
1504052
1504058
1504061
1504080
1504081
1504082
1504092
1504100
1504131
1504138
1504145
1504159
