1431670
1447473
1461526
1479692
1481612
1497611
1500755
1501662
1502298
1503457
1533862
1534658
1580566
1630221
1664192
1697464
1697726
1711895
1728368
1782413
1826069
1854685
1861853
1863699
1864139
1865340
1867122
1867546
1867835
1868290
1868598
1868699
1868800
1868887
1868896
1868945
1869404
1869501
1869617
1869659
1869685
1869696
1869832
1869881
1869950
1870082
1870115
1870174
1870212
1870220
1870260
1870284
1870316
1870317
1870367
1870431
1870448
1870461
1870471
1870678
1870684
1870702
1870714
1870762
1870782
1870815
1870921
1870966
1870967
1871021
1871238
1871271
1871311
1871329
1871391
1871450
1871533
1871618
1871729
1871807
1871880
1871998
1872026
1872032
1872081
1872105
1872113
1872193
1872261
1872270
1872298
1872315
1872351
1872505
1872521
1872570
1872629
1872698
1872710
1872760
1872873
1872954
1873292
1873377
1873608
1873632
1873666
1873715
1873812
1874022
1874047
1874100
1874215
1874267
1874476
1874534
1874709
1874777
1874969
1875081
1875176
1875200
1875337
1875376
1875506
1875507
1875512
1875576
1875606
1875645
1875777
1875803
1875835
1875851
1875900
1875988
1876001
1876123
1876137
1876169
1876200
1876206
1876230
1876332
1876343
1876445
1876498
1876551
1876571
1876682
1876701
1876858
1876897
1876972
1877033
1877061
1877236
1877239
1877266
1877283
1877311
1877313
1877315
1877325
1877385
1877412
1877421
1877564
1877629
1877704
1877752
1877761
1877800
1877873
1877878
1877899
1877905
1877922
1877965
1878023
1878038
1878062
1878080
1878126
1878158
1878176
1878311
1878360
1878415
1878469
1878529
1878623
1878669
1878754
1878755
1878800
1878826
1878855
1878897
1878900
1878924
1878931
1879018
1879085
1879153
1879178
1879190
1879208
1879365
1879465
1879480
1879486
1879498
1879537
1879592
1879723
1879838
1879917
1879927
1879955
1880026
1880076
1880188
1880214
1880236
1880264
1880350
1880378
1880395
1880419
1880422
1880425
1880475
1880550
1880575
1880657
1880678
1880822
1880825
1880838
1880936
1880960
1880990
1881029
1881123
1881187
1881200
1881217
1881224
1881284
1881388
1881403
1881404
1881556
1881565
1881572
1881586
1881603
1881742
1881782
1881835
1881909
1881926
1882025
1882066
1882093
1882185
1882202
1882254
1882302
1882308
1882309
1882350
1882387
1882429
1882483
1882492
1882493
1882496
1882569
1882574
1882580
1882663
1882795
1882831
1882837
1882849
1882860
1882907
1882968
1882986
1882993
1883028
1883070
1883161
1883167
1883183
1883221
1883277
1883284
1883420
1883458
1883516
1883572
1883642
1883678
1883686
1883694
1883739
1883758
1883781
1883788
1883808
1883864
1883872
1883873
1883888
1883971
1884091
1884152
1884162
1884257
1884383
1884406
1884436
1884456
1884472
1884473
1884509
1884513
1884546
1884555
1884563
1884610
1884617
1884636
1884667
1884672
1884723
1884740
1884853
1884886
1884898
1884932
1884943
1884954
1885018
1885056
1885065
1885138
1885181
1885205
1885206
1885228
1885312
1885371
1885564
1885573
1885582
1885636
1885648
1885761
1885830
1885871
1885886
1885893
1885982
1886086
1886123
1886169
1886177
1886273
1886346
1886408
1886443
1886477
1886479
1886513
1886547
1886550
1886698
1886767
1886825
1886826
1886836
1886891
1886982
1887082
1887100
1887105
1887118
1887142
1887143
1887149
1887215
1887222
1887298
1887402
1887416
1887476
1887501
1887510
1887523
1887526
1887541
1887550
1887579
1887621
1887730
1887734
1887738
1887811
1887865
1888057
1888087
1888101
1888341
1888384
1888484
1888567
1888568
1888586
1888695
1888741
1888765
1888807
1888810
1888815
1888867
1888872
1888882
1888888
1888896
1889020
1889071
1889127
1889147
1889157
1889180
1889213
1889225
1889388
1889390
1889402
1889412
1889460
1889531
1889546
1889656
1889694
1889731
1889758
1889774
1889810
1889811
1889819
1889826
1889841
1889856
1889868
1889902
1890064
1890146
1890284
1890309
1890452
1890612
1890645
1890654
1890677
1890684
1890803
1890817
1890871
1890979
1891018
1891025
1891055
1891056
1891103
1891278
1891348
1891516
1891533
1891551
1891587
1891601
1891607
1891633
1891640
1891642
1891721
1891730
1891769
1891771
1891821
1891917
1891967
1891975
1892003
1892018
1892094
1892114
1892155
1892163
1892185
1892201
1892246
1892263
1892284
1892354
1892356
