1439080
1440169
1462113
1462214
1462703
1466620
1468719
1471307
1482030
1485371
1485395
1497611
1519752
1530742
1533229
1533862
1543101
1561189
1564617
1580566
1584867
1601257
1619526
1630221
1630306
1634994
1636273
1660062
1678736
1690808
1710524
1711306
1717948
1723214
1723410
1723509
1724123
1724190
1724243
1724283
1724354
1724399
1724420
1724430
1724458
1724505
1724515
1724519
1724540
1724549
1724550
1724597
1724669
1724674
1724733
1724798
1724817
1724818
1724841
1724888
1724953
1725018
1725041
1725075
1725109
1725204
1725232
1725260
1725273
1725290
1725294
1725336
1725352
1725355
1725411
1725414
1725421
1725426
1725433
1725457
1725481
1725509
1725511
1725522
1725569
1725609
1725681
1725706
1725730
1725769
1725885
1725895
1725922
1725951
1725968
1725991
1726000
1726015
1726016
1726051
1726061
1726064
1726085
1726096
1726099
1726159
1726175
1726256
1726267
1726337
1726388
1726449
1726516
1726527
1726534
1726565
1726576
1726612
1726694
1726803
1726846
1726880
1726923
1726984
1726999
1727006
1727095
1727096
1727102
1727207
1727208
1727215
1727240
1727271
1727294
1727319
1727322
1727327
1727335
1727349
1727431
1727451
1727492
1727495
1727570
1727607
1727624
1727709
1727735
1727742
1727768
1727808
1727840
1727856
1727858
1727863
1727882
1727954
1727957
1727970
1727972
1728076
1728162
1728168
1728185
1728189
1728203
1728207
1728271
1728286
1728296
1728368
1728446
1728462
1728469
1728483
1728513
1728530
1728540
1728622
1728645
1728672
1728680
1728685
1728772
1728838
1728898
1728899
1728932
1729029
1729065
1729077
1729081
1729084
1729112
1729154
1729155
1729169
1729170
1729184
1729280
1729288
1729367
1729436
1729465
1729487
1729491
1729512
1729525
1729531
1729552
1729553
1729582
1729584
1729603
1729669
1729678
1729679
1729788
1729800
1729874
1729887
1729965
1730086
1730097
1730099
1730158
1730162
1730174
1730176
1730197
1730220
1730225
1730257
1730260
1730266
1730268
1730275
1730276
1730288
1730295
1730302
1730354
1730365
1730426
1730443
1730456
1730474
1730477
1730588
1730595
1730641
1730758
1730954
1730995
1731009
1731065
1731085
1731136
1731204
1731231
1731260
1731308
1731320
1731326
1731363
1731443
1731487
1731507
1731511
1731535
1731632
1731648
1731664
1731802
1731836
1731873
1731980
1731985
1732065
1732068
1732072
1732146
1732161
1732180
1732257
1732359
1732377
1732379
1732397
1732412
1732417
1732439
1732441
1732447
1732485
1732497
1732523
1732535
1732536
1732573
1732651
1732692
1732706
1732717
1732722
1732791
1732868
1732964
1732996
1733061
1733147
1733213
1733284
1733327
1733443
1733452
1733541
1733605
1733643
1733685
1733712
1733847
1733869
1733945
1734006
1734009
1734038
1734082
1734128
1734142
1734169
1734191
1734211
1734220
1734304
1734347
1734367
1734369
1734378
1734405
1734479
1734502
1734525
1734598
1734665
1734752
1734777
1734800
1734836
1734902
1734908
1734917
1734980
1734990
1735015
1735019
1735021
1735058
1735094
1735145
1735152
1735198
1735254
1735338
1735396
1735458
1735473
1735616
1735624
1735683
1735725
1735779
1735814
1735827
1736233
1736256
1736302
1736466
1736472
1736481
1736519
1736572
1736655
1736730
1736749
1736755
1736818
1736819
1736836
1737017
1737018
1737043
1737103
1737111
1737155
1737203
1737208
1737220
1737226
1737246
1737250
1737282
1737288
1737349
1737372
1737382
1737399
1737421
1737422
1737442
1737457
1737587
1737598
1737612
1737620
1737637
1737640
1737657
1737788
1737800
1737881
1737909
1737980
1737984
1738038
1738219
1738373
1738439
1738519
1738543
1738553
1738558
1738604
1738660
1738661
1738744
1738786
1738793
1738814
1738843
1738897
1738900
1738922
1738928
1738945
1738960
1738969
1738976
1738986
1739013
1739017
1739114
1739131
1739169
1739189
1739206
1739218
1739299
1739309
1739320
1739330
1739371
1739433
1739475
1739499
1739594
1739605
1739623
1739626
1739663
1739714
1739737
1739796
1739822
1739827
1739839
1739846
1739858
1739893
1739901
1739917
1739963
1740089
1740098
1740111
1740117
1740149
1740271
1740328
1740363
1740439
1740482
1740797
1740804
1740976
1741000
1741108
1741193
1741293
1741342
1741362
1741383
1741395
1741403
1741562
1741582
1741651
1741733
1741898
1741995
1742046
