1428591
1469176
1497611
1514162
1523591
1533314
1533862
1548634
1580566
1600473
1610552
1618655
1629125
1630221
1694633
1709755
1732692
1740104
1782413
1785466
1803836
1804217
1805597
1818215
1826522
1884853
1896396
1900768
1902543
1902985
1906089
1907161
1909343
1911595
1917906
1920150
1920557
1920843
1920950
1920999
1921025
1921122
1921322
1921354
1921380
1921400
1921408
1921437
1921504
1922005
1922045
1922079
1922117
1922173
1922179
1922190
1922207
1922209
1922241
1922300
1922424
1922453
1922664
1922738
1922747
1922763
1922814
1922889
1922907
1922951
1922957
1922975
1923009
1923012
1923056
1923131
1923146
1923171
1923263
1923289
1923333
1923353
1923514
1923536
1923543
1923668
1923785
1923914
1924084
1924177
1924200
1924208
1924216
1924259
1924409
1924417
1924418
1924477
1924574
1924635
1924704
1924742
1924773
1924788
1924918
1924946
1925100
1925257
1925272
1925278
1925382
1925535
1925555
1925602
1925621
1925790
1925806
1925854
1926050
1926162
1926214
1926257
1926454
1926512
1926605
1926625
1926687
1926712
1926784
1926821
1926857
1926860
1926940
1926982
1927036
1927137
1927196
1927340
1927365
1927805
1927932
1927999
1928020
1928026
1928330
1928346
1928483
1928585
1928751
1928793
1928809
1928861
1928952
1929020
1929050
1929073
1929184
1929255
1929269
1929293
1929326
1929328
1929410
1929417
1929423
1929449
1929516
1929519
1929523
1929537
1929552
1929597
1929636
1930071
1930294
1930339
1930538
1930614
1930700
1930741
1930765
1930787
1930797
1930882
1930919
1931087
1931155
1931260
1931287
1931313
1931420
1931453
1931455
1931506
1931538
1931562
1931571
1931579
1931602
1931607
1931640
1931678
1931753
1931769
1931782
1932034
1932048
1932063
1932323
1932332
1932362
1932433
1932506
1932615
1933273
1933314
1933319
1933350
1933424
1933680
1933711
1933781
1933792
1933838
1933873
1933889
1933989
1934009
1934022
1934072
1934087
1934143
1934175
1934192
1934236
1934438
1934442
1934604
1934658
1934678
1934684
1934703
1934718
1934760
1934796
1934800
1935124
1935165
1935206
1935302
1935453
1935608
1935619
1935693
1936037
1936105
1936146
1936168
1936234
1936451
1936527
1936656
1936815
1936835
1936847
1936905
1936980
1937038
1937049
1937067
1937143
1937264
1937372
1937394
1937397
1937481
1937500
1937595
1937664
1937689
1937702
1937845
1937849
1937856
1937874
1937978
1938161
1938185
1938248
1938310
1938330
1938416
1938588
1938630
1938649
1938702
1938857
1938870
1938871
1939012
1939015
1939172
1939250
1939279
1939296
1939326
1939358
1939360
1939378
1939392
1939406
1939479
1939615
1939697
1939766
1939843
1939851
1939925
1939929
1940027
1940151
1940181
1940518
1940586
1940604
1940687
1940698
1940733
1940903
1940946
1941168
1941227
1941242
1941255
1941414
1941425
1941506
1941509
1941520
1941537
1941543
1941546
1941607
1941663
1941785
1941791
1941796
1941884
1941925
1941981
1942282
1942288
1942289
1942290
1942367
1942374
1942414
1942455
1942481
1942571
1942580
1942584
1942665
1942699
1942776
1942847
1942861
1942970
1943013
1943022
1943109
1943141
1943208
1943289
1943304
1943345
1943420
1944030
1944078
1944206
1944342
1944347
1944353
1944362
1944370
1944410
1944416
1944465
1944567
1944701
1944793
1944822
1944844
1944962
1945065
1945119
1945214
1945294
1945612
1945626
1945691
1945764
1945807
1945912
1945938
1946081
1946276
1946282
1946336
1946372
1946387
1946461
1946537
1946585
1946587
1946605
1946671
1946922
1946959
1947182
1947254
1947281
1947289
1947336
1947395
1947399
1947428
1947454
1947464
1947482
1947594
1947612
1947784
1947804
1947882
1947883
1947909
1947949
1947954
1948050
1948061
1948204
1948231
1948510
1948531
1948551
1948556
1948561
1948567
1948653
1948857
1948869
1948878
1948929
1948988
1949156
1949253
1949313
1949330
1949397
1949446
1949450
1949491
1949549
1949658
1949661
1949663
1949668
1949671
1949706
1949812
1949904
1949908
1950080
1950123
1950277
1950330
1950351
1950373
1950503
1950566
1950618
1950632
1950648
1950654
1950754
1950800
1950942
1951055
1951056
1951094
1951175
1951183
1951191
1951314
1951409
1951434
1951481
1951536
1951659
1951686
1951708
1951728
1951763
1951773
1951799
1951810
1951825
1951855
1951964
1951996
1952037
1952044
1952909
