1492753
1510032
1510037
1510038
1510198
1510238
1510293
1510310
1510359
1510404
1510472
1510482
1510485
1510498
1510515
1510535
1510565
1510641
1510644
1510706
1510716
1510718
1510728
1510760
1510774
1510807
1510848
1510886
1510890
1510894
1510923
1510947
1510958
1510967
1510986
1511016
1511061
1511078
1511090
1511092
1511095
1511128
1511138
1511168
1511177
1511195
1511283
1511306
1511325
1511327
1511351
1511375
1511391
1511392
1511422
1511430
1511443
1511464
1511466
1511515
1511519
1511528
1511535
1511539
1511542
1511581
1511595
1511611
1511616
1511650
1511660
1511687
1511689
1511690
1511694
1511696
1511793
1511806
1511819
1511859
1511877
1511917
1511972
1511994
1511995
1512032
1512038
1512047
1512073
1512088
1512098
1512099
1512126
1512150
1512161
1512197
1512230
1512242
1512252
1512345
1512365
1512501
1512525
1512628
1512656
1512679
1512683
1512749
1512780
1512790
1512802
1512879
1512933
1513029
1513043
1513044
1513181
1513216
1513249
1513254
1513279
1513280
1513304
1513399
1513406
1513429
1513528
1513545
1513548
1513595
1513612
1513630
1513643
1513656
1513672
1513677
1513696
1513713
1513739
1513766
1513767
1513792
1513813
1513823
1513890
1513944
1513968
1514012
1514015
1514113
1514162
1514227
1514236
1514284
1514311
1514343
1514345
1514372
1514431
1514461
1514487
1514505
1514540
1514556
1514559
1514584
1514587
1514597
1514602
1514623
1514680
1514686
1514690
1514722
1514733
1514747
1514802
1514853
1514926
1514949
1514951
1514984
1515052
1515091
1515144
1515145
1515247
1515300
1515328
1515405
1515434
1515451
1515510
1515530
1515596
1515603
1515653
1515657
1515679
1515685
1515724
1515730
1515738
1515777
1515856
1515866
1515874
1515878
1515887
1515888
1515932
1515942
1515957
1515991
1516066
1516075
1516086
1516125
1516146
1516178
1516190
1516260
1516310
1516363
1516407
1516410
1516421
1516428
1516468
1516498
1516519
1516523
1516534
1516579
1516621
1516680
1516773
1516809
1516815
1516866
1516875
1517002
1517034
1517057
1517084
1517141
1517146
1517154
1517169
1517186
1517256
1517275
1517340
1517364
1517381
1517424
1517429
1517444
1517454
1517464
1517482
1517492
1517504
1517511
1517519
1517523
1517525
1517532
1517544
1517576
1517577
1517601
1517602
1517610
1517647
1517661
1517672
1517675
1517700
1517716
1517738
1517798
1517816
1517819
1517823
1517828
1517830
1517841
1517862
1517874
1517880
1517904
1517925
1517926
1517943
1517987
1518020
1518027
1518054
1518062
1518081
1518103
1518118
1518193
1518236
1518239
1518256
1518288
1518294
1518323
1518411
1518546
1518552
1518566
1518657
1518676
1518678
1518684
1518700
1518706
1518736
1518762
1518767
1518772
1518776
1518779
1518805
1518808
1518811
1518828
1518850
1518886
1518902
1518904
1518969
1518981
1518983
1519035
1519049
1519085
1519088
1519097
1519115
1519118
1519122
1519129
1519135
1519148
1519151
1519152
1519155
1519175
1519186
1519192
1519205
1519213
1519214
1519215
1519218
1519243
1519254
1519266
1519269
1519282
1519296
1519307
1519311
1519349
1519371
1519403
1519409
1519432
1519457
1519472
1519496
1519505
1519526
1519532
1519568
1519571
1519573
1519633
1519639
1519655
1519659
1519689
1519703
1519758
1519762
1519787
1519822
1519863
1519895
1519908
1519909
1519920
1519944
1519949
1520020
1520028
1520029
1520034
1520047
1520054
1520081
1520093
1520110
1520123
1520125
1520152
1520173
1520218
1520243
1520263
1520269
1520275
1520289
1520310
1520353
1520364
1520399
1520401
1520404
1520409
1520415
1520425
1520426
1520427
1520451
1520453
1520459
1520462
1520465
1520491
1520535
1520546
1520564
1520588
1520589
1520599
1520632
1520634
1520663
1520682
1520683
1520694
1520776
1520779
1520800
1520824
1520844
1520871
1520884
1520918
1521011
1521013
1521042
1521048
1521057
1521067
1521068
1521078
1521082
1521095
1521102
1521116
1521119
1521123
1521125
1521127
1521129
1521130
1521135
1521136
1521155
1521188
1521196
