1497611
1517819
1517823
1517828
1517830
1533862
1541871
1592743
1595551
1595586
1595617
1595643
1595734
1595746
1595747
1595866
1595909
1595932
1595936
1596133
1596184
1596202
1596232
1596305
1596313
1596366
1596439
1596484
1596495
1596540
1596574
1596648
1596827
1596918
1597007
1597113
1597136
1597207
1597255
1597280
1597282
1597474
1597541
1597916
1597928
1597961
1597962
1597980
1597983
1598061
1598063
1598114
1598115
1598122
1598153
1598184
1598255
1598275
1598366
1598425
1598473
1598500
1598507
1598548
1598556
1598605
1598658
1598672
1598701
1598720
1598817
1598866
1598926
1598944
1599076
1599198
1599200
1599252
1599259
1599337
1599356
1599408
1599419
1599428
1599444
1599460
1599506
1599512
1599576
1599585
1599672
1599677
1599752
1599775
1599796
1599834
1599840
1600034
1600151
1600201
1600224
1600375
1600405
1600434
1600473
1600523
1600527
1600530
1600549
1600555
1600559
1600571
1600616
1600646
1600700
1600720
1600766
1600774
1600865
1600867
1600987
1601100
1601189
1601255
1601257
1601326
1601353
1601423
1601517
1601559
1601583
1601594
1601603
1601811
1601871
1601982
1602103
1602372
1602512
1602522
1602613
1602617
1602677
1602690
1602713
1602801
1602817
1602843
1602869
1602894
1603004
1603025
1603098
1603119
1603142
1603272
1603464
1603509
1603725
1603783
1603970
1604081
1604085
1604161
1604226
1604306
1604318
1604413
1604466
1604550
1604567
1604619
1604677
1604757
1604837
1604949
1604971
1604989
1605072
1605091
1605197
1605216
1605237
1605286
1605289
1605335
1605365
1605385
1605566
1605612
1605675
1605735
1605766
1605811
1605875
1605912
1605941
1605989
1606096
1606200
1606245
1606298
1606373
1606401
1606474
1606486
1606582
1606629
1606685
1606691
1606695
1606710
1606768
1606799
1606812
1606877
1606924
1606930
1606932
1606990
1607030
1607064
1607083
1607098
1607155
1607160
1607173
1607230
1607242
1607244
1607249
1607272
1607279
1607346
1607370
1607395
1607399
1607414
1607442
1607497
1607574
1607589
1607612
1607616
1607628
1607630
1607655
1607658
1607729
1607738
1607757
1607853
1607906
1607933
1607946
1607949
1608000
1608013
1608028
1608037
1608073
1608089
1608092
1608100
1608149
1608162
1608173
1608190
1608222
1608227
1608264
1608287
1608309
1608318
1608325
1608354
1608472
1608628
1608639
1608701
1608779
1608868
1608908
1608941
1608961
1608972
1609036
1609125
1609154
1609194
1609200
1609243
1609282
1609289
1609307
1609322
1609333
1609371
1609402
1609410
1609412
1609425
1609429
1609447
1609458
1609485
1609502
1609506
1609577
1609657
1609692
1609771
1609785
1609805
1609810
1609813
1609818
1609832
1609853
1609878
1609885
1609922
1609980
1609990
1610053
1610083
1610142
1610149
1610213
1610240
1610242
1610248
1610281
1610288
1610297
1610314
1610320
1610347
1610386
1610409
1610430
1610435
1610495
1610503
1610531
1610552
1610561
1610581
1610669
1610751
1610796
1610801
1610811
1610823
1610850
1610867
1610868
1610889
1610904
1610938
1611000
1611066
1611099
1611153
1611174
1611226
1611247
1611325
1611430
1611460
1611524
1611549
1611590
1611731
1611784
1611853
1611921
1611926
1612027
1612104
1612128
1612248
1612249
1612380
1612591
1612605
1612818
1612852
1612870
1612871
1612978
1613101
1613209
1613338
1613343
1613361
1613449
1613501
1613550
1613571
1613595
1613641
1613643
1613672
1613702
1613777
1613814
1613917
1614002
1614057
1614271
1614326
1614331
1614354
1614424
1614441
1614448
1614482
1614506
1614526
1614528
1614539
1614570
1614609
1614624
1614625
1614630
1614639
1614653
1614674
1614683
1614710
1614751
1614903
1614990
1615111
1615118
1615154
1615178
1615224
1615577
1615626
1615649
1615676
1615697
1615703
1615729
1615732
1615741
1615800
1615817
1616010
1616016
1616045
1616094
1616136
1616213
1616238
1616253
1616256
1616294
1616311
1616376
1616470
1616483
1616601
1616746
1616796
1616801
1616831
1616861
1616889
1616890
1616892
1617016
1617046
1617144
1617219
1617245
1617285
1617380
