1497611
1517819
1517823
1517828
1517830
1533862
1617951
1617966
1618032
1618076
1618179
1618191
1618238
1618260
1618327
1618334
1618336
1618344
1618349
1618382
1618387
1618407
1618431
1618456
1618469
1618504
1618515
1618520
1618655
1618676
1618696
1618736
1618737
1618839
1618959
1618992
1619001
1619060
1619206
1619233
1619292
1619315
1619319
1619398
1619458
1619493
1619512
1619515
1619555
1619626
1619641
1619718
1619744
1619784
1619821
1619845
1619997
1620004
1620028
1620137
1620166
1620198
1620238
1620283
1620321
1620463
1620470
1620480
1620530
1620541
1620623
1620630
1620632
1620688
1620706
1620759
1620770
1620792
1620809
1620832
1620848
1620877
1620890
1620899
1620903
1620904
1620948
1621090
1621094
1621150
1621289
1621344
1621353
1621355
1621390
1621426
1621427
1621490
1621639
1621714
1621748
1621790
1621810
1621957
1622129
1622139
1622166
1622182
1622237
1622286
1622336
1622347
1622496
1622688
1622704
1622713
1622759
1622779
1622792
1622858
1622863
1622926
1622983
1623079
1623202
1623294
1623317
1623327
1623390
1623400
1623435
1623443
1623484
1623523
1623711
1623736
1623805
1623869
1623880
1623945
1623973
1623996
1624078
1624197
1624213
1624214
1624221
1624261
1624262
1624281
1624347
1624388
1624415
1624433
1624442
1624469
1624480
1624490
1624495
1624496
1624516
1624531
1624539
1624555
1624588
1624607
1624617
1624681
1624720
1624750
1624772
1624782
1624804
1624860
1624940
1624962
1624990
1625028
1625055
1625076
1625077
1625112
1625120
1625133
1625153
1625155
1625202
1625204
1625214
1625300
1625304
1625305
1625308
1625341
1625427
1625455
1625465
1625470
1625490
1625537
1625650
1625812
1625857
1625858
1625867
1625883
1625917
1625934
1625936
1625968
1625995
1626042
1626181
1626188
1626286
1626292
1626321
1626324
1626407
1626415
1626514
1626565
1626574
1626584
1626702
1626730
1626751
1626773
1626798
1626804
1626838
1626857
1626863
1626881
1626907
1626978
1627092
1627105
1627200
1627209
1627270
1627287
1627332
1627391
1627409
1627437
1627506
1627555
1627560
1627561
1627601
1627623
1627637
1627654
1627658
1627698
1627706
1627708
1627715
1627733
1627761
1627763
1627771
1627772
1627819
1627875
1627918
1627924
1628019
1628038
1628048
1628089
1628097
1628105
1628161
1628174
1628257
1628322
1628437
1628444
1628562
1628669
1628694
1628712
1628804
1628805
1628806
1629024
1629029
1629039
1629062
1629067
1629069
1629125
1629184
1629220
1629297
1629326
1629384
1629429
1629444
1629479
1629495
1629528
1629584
1629588
1629589
1629672
1629674
1629686
1629706
1629747
1629839
1629852
1630097
1630122
1630142
1630148
1630155
1630157
1630187
1630212
1630213
1630221
1630268
1630274
1630297
1630306
1630344
1630353
1630410
1630411
1630422
1630434
1630474
1630480
1630494
1630507
1630512
1630581
1630661
1630668
1630725
1630836
1630843
1630964
1630995
1631028
1631048
1631065
1631093
1631120
1631133
1631139
1631155
1631162
1631163
1631181
1631183
1631209
1631312
1631313
1631355
1631382
1631398
1631421
1631471
1631601
1631666
1631736
1631777
1631865
1631947
1632024
1632043
1632044
1632055
1632095
1632096
1632159
1632161
1632179
1632217
1632245
1632259
1632262
1632283
1632395
1632416
1632546
1632599
1632623
1632690
1632734
1632804
1632859
1632912
1632997
1633009
1633170
1633187
1633230
1633289
1633346
1633363
1633384
1633434
1633440
1633567
1633573
1633628
1633652
1633693
1633703
1633706
1633721
1633733
1633794
1633823
1633856
1633962
1633968
1634019
1634090
1634091
1634121
1634136
1634137
1634165
1634194
1634314
1634351
1634413
1634570
1634670
1634773
1634774
1634800
1634887
1634953
1634994
1635087
1635140
1635180
1635298
1635327
1635347
1635489
1635533
1635638
1635659
1635697
1635731
1635761
1635831
1635865
1635942
1635992
1636025
1636183
1636192
1636224
1636273
1636275
1636296
1636325
1636336
1636408
1636428
1636443
1636468
1636582
1636617
1636639
1636674
1636706
1636755
1636765
1636801
1636821
1636845
