1447778
1454813
1466899
1468585
1477089
1477680
1497611
1509017
1526141
1533862
1566940
1580566
1603970
1630221
1645566
1648167
1650386
1657042
1685882
1695259
1697726
1726015
1730260
1730276
1732692
1733847
1762491
1782413
1784326
1785466
1789238
1790133
1826522
1835212
1846963
1847632
1848403
1848458
1851748
1852330
1854562
1855938
1856878
1856961
1858269
1861853
1864139
1874022
1877315
1881572
1884610
1884672
1884807
1884886
1884898
1884932
1884943
1884954
1885018
1885065
1885206
1885228
1885312
1885371
1885564
1885636
1885648
1885871
1886086
1886169
1886177
1886408
1886547
1886550
1886767
1886825
1886836
1887082
1887105
1887142
1887222
1887298
1887416
1887501
1887526
1887550
1887738
1887811
1888341
1888567
1888568
1888741
1888765
1888867
1888872
1888882
1888888
1888896
1889147
1889157
1889180
1889213
1889225
1889299
1889388
1889390
1889402
1889531
1889546
1889656
1889694
1889774
1889841
1889856
1889868
1889902
1890064
1890103
1890146
1890284
1890309
1890452
1890677
1890684
1890817
1891056
1891103
1891278
1891348
1891516
1891527
1891533
1891551
1891587
1891601
1891607
1891633
1891640
1891642
1891721
1891730
1891769
1891771
1891821
1891917
1891967
1891975
1892003
1892018
1892094
1892114
1892155
1892163
1892185
1892201
1892246
1892263
1892284
1892354
1892356
1892375
1892433
1892457
1892481
1892513
1892517
1892576
1892601
1892667
1892670
1892691
1892788
1892800
1892807
1892818
1892855
1892888
1892923
1892967
1893032
1893111
1893136
1893180
1893314
1893342
1893465
1893509
1893521
1893537
1893549
1893557
1893585
1893626
1893685
1893725
1893810
1893839
1893851
1893991
1894138
1894147
1894188
1894209
1894246
1894250
1894255
1894260
1894423
1894461
1894548
1894593
1894657
1894927
1894930
1894976
1895016
1895036
1895135
1895149
1895194
1895265
1895344
1895356
1895360
1895372
1895515
1895525
1895681
1895776
1895802
1895804
1895820
1895826
1895827
1895892
1895907
1895946
1895961
1895964
1896024
1896034
1896108
1896146
1896175
1896287
1896325
1896345
1896380
1896396
1896404
1896557
1896642
1896692
1896716
1896775
1896779
1896855
1896904
1897123
1897188
1897251
1897334
1897405
1897414
1897421
1897460
1897471
1897489
1897499
1897510
1897524
1897593
1897623
1897681
1897684
1897743
1897810
1897826
1897893
1897918
1897938
1897965
1897998
1898120
1898159
1898169
1898268
1898274
1898288
1898364
1898381
1898475
1898483
1898491
1898509
1898542
1898543
1898618
1898663
1898672
1898740
1898744
1898748
1898766
1898770
1898773
1898829
1898846
1898882
1898903
1898944
1898956
1899055
1899132
1899170
1899217
1899267
1899292
1899399
1899408
1899435
1899445
1899471
1899492
1899506
1899546
1899620
1899706
1899790
1899860
1899867
1899895
1900060
1900122
1900130
1900158
1900195
1900224
1900234
1900243
1900285
1900376
1900417
1900460
1900596
1900647
1900673
1900768
1900812
1900813
1900940
1900971
1901093
1901127
1901141
1901166
1901299
1901412
1901447
1901529
1901569
1901599
1901631
1901704
1901741
1901744
1901880
1901921
1902146
1902215
1902240
1902248
1902278
1902387
1902391
1902462
1902498
1902543
1902572
1902574
1902603
1902708
1902962
1902985
1903172
1903400
1903433
1903452
1903462
1903516
1903520
1903531
1903635
1903687
1903716
1903734
1903857
1904044
1904059
1904078
1904100
1904423
1904440
1904474
1904479
1904486
1904495
1904582
1904717
1904802
1904873
1904909
1904970
1904981
1905048
1905090
1905160
1905313
1905318
1905349
1905361
1905400
1905530
1905550
1905554
1905605
1905625
1905731
1905762
1905780
1905820
1905837
1905874
1906079
1906089
1906142
1906143
1906169
1906213
1906313
1906369
1906381
1906456
1906504
1906782
1906877
1906898
1907018
1907058
1907101
1907150
1907159
1907161
1907165
1907166
1907253
1907346
1907388
1907427
1907499
1907514
1907529
1907543
1907592
1907641
1907654
1907947
1907982
1907989
1908013
1908069
1908075
1908091
1908098
1908134
1908141
1908183
1908241
1908283
1908314
1908360
1908822
1908869
1909039
1909057
1909065
1909136
1909171
1909172
1909198
1909288
1909289
1909337
1909343
1909364
1909448
1909518
1909686
1909855
1909985
1910152
1910173
1910218
1910248
1910303
1910390
1910403
1910410
1910500
1910776
1910796
1910816
1910885
1910927
1911009
1911134
1911452
1911521
1911569
1911595
1911683
1911850
1911893
1911908
1911943
1911995
1912115
1912248
1912301
1912319
1912667
1912691
1912758
1912843
1912864
1912886
1912961
1913059
1913122
1913159
1913202
1913207
1913239
1913335
1913345
1913423
1913454
1913478
1913511
1913587
1913676
1913813
1914092
1914354
1914475
1914498
1914499
1914532
1914570
1914664
1914880
1914895
1915063
1915095
1915110
1915285
1915409
1915529
1915601
1915876
1915984
1916013
1916024
1916031
1916055
1916112
1916153
1916221
1916360
1916404
1916465
1916510
1916703
1916715
1916737
1916761
1916806
1916845
1916878
1916942
1917037
1917106
1917121
1917237
1917240
1917248
1917251
1917489
1917574
1917642
1917735
1917747
1917768
1917771
1917801
1917906
1917970
1918011
1918123
1918137
1918238
1918239
1918289
1918307
