1497611
1517819
1517823
1517828
1517830
1533862
1541871
1585297
1585306
1585378
1585401
1585443
1585494
1585525
1585636
1585695
1585745
1585794
1585813
1585824
1585885
1585919
1585924
1585989
1586020
1586032
1586040
1586049
1586055
1586134
1586204
1586238
1586335
1586340
1586346
1586429
1586442
1586477
1586484
1586485
1586513
1586614
1586640
1586653
1586758
1586857
1586920
1586982
1586991
1587076
1587085
1587122
1587166
1587210
1587227
1587232
1587274
1587280
1587286
1587322
1587392
1587417
1587465
1587483
1587614
1587638
1587640
1587676
1587702
1587704
1587735
1587736
1587762
1587763
1587785
1587830
1587857
1587938
1587968
1587993
1588025
1588066
1588132
1588152
1588243
1588314
1588323
1588435
1588462
1588482
1588520
1588527
1588540
1588550
1588603
1588625
1588647
1588747
1588768
1588789
1588812
1588908
1588990
1589136
1589170
1589189
1589304
1589343
1589492
1589579
1589636
1589683
1589788
1589806
1589813
1589831
1589851
1589855
1589889
1589948
1589996
1590102
1590357
1590391
1590442
1590447
1590516
1590585
1590596
1590612
1590630
1590670
1590702
1590724
1590814
1590861
1590922
1591103
1591164
1591253
1591276
1591336
1591337
1591448
1591777
1591905
1592066
1592088
1592092
1592123
1592130
1592189
1592376
1592425
1592577
1592617
1592708
1592739
1592743
1592752
1592798
1592854
1592901
1593021
1593188
1593281
1593313
1593452
1593529
1593542
1593589
1593609
1593611
1593693
1593760
1593799
1593822
1593852
1593874
1593888
1593954
1593980
1594039
1594071
1594115
1594142
1594325
1594405
1594444
1594712
1594811
1594859
1594934
1594962
1594971
1595024
1595155
1595238
1595250
1595292
1595299
1595455
1595474
1595517
1595534
1595551
1595586
1595617
1595643
1595734
1595746
1595747
1595866
1595909
1595932
1595936
1595978
1596111
1596133
1596184
1596202
1596232
1596305
1596313
1596366
1596439
1596484
1596495
1596540
1596574
1596648
1596827
1596918
1597007
1597113
1597136
1597207
1597255
1597280
1597282
1597474
1597506
1597518
1597541
1597689
1597916
1597928
1597961
1597962
1597980
1597983
1598061
1598063
1598114
1598115
1598122
1598153
1598184
1598255
1598275
1598366
1598425
1598473
1598500
1598507
1598548
1598556
1598605
1598658
1598672
1598701
1598720
1598817
1598866
1598926
1598944
1599076
1599198
1599200
1599252
1599259
1599337
1599356
1599408
1599419
1599428
1599444
1599460
1599506
1599512
1599543
1599576
1599585
1599672
1599677
1599752
1599775
1599796
1599834
1599840
1599857
1599955
1600034
1600151
1600201
1600224
1600375
1600405
1600434
1600473
1600523
1600527
1600530
1600549
1600555
1600559
1600571
1600616
1600646
1600669
1600700
1600720
1600766
1600774
1600788
1600865
1600867
1600987
1601100
1601189
1601255
1601257
1601326
1601353
1601423
1601517
1601559
1601583
1601594
1601603
1601721
1601811
1601871
1601966
1601982
1602103
1602372
1602512
1602522
1602613
1602617
1602677
1602690
1602713
1602801
1602817
1602843
1602869
1602894
1602960
1603004
1603025
1603098
1603119
1603142
1603272
1603464
1603509
1603725
1603783
1603821
1603970
1604081
1604085
1604161
1604226
1604306
1604318
1604413
1604466
1604550
1604567
1604619
1604677
1604700
1604757
1604808
1604837
1604949
1604971
1604989
1605072
1605091
1605197
1605216
1605237
1605286
1605289
1605335
1605365
1605385
1605566
1605612
1605675
1605735
1605766
1605811
1605875
1605912
1605941
1605989
1606096
1606200
1606245
1606298
1606373
1606401
1606474
1606486
1606582
1606629
1606685
1606691
1606695
1606710
1606768
1606799
1606812
1606877
1606924
1606930
1606932
1606990
1607030
1607064
1607083
1607098
1607155
1607160
1607173
1607230
1607242
1607244
1607249
1607272
1607279
1607346
1607370
1607395
1607399
1607414
1607442
1607497
1607574
1607589
1607612
1607616
1607628
1607630
1607655
1607658
1607729
1607738
1607757
1607853
1607906
1607933
1607946
1607949
1608000
1608013
1608028
1608037
1608065
1608073
1608089
1608092
1608100
1608149
1608162
1608173
1608190
