1492753
1517819
1517823
1517828
1517830
1519218
1519243
1519254
1519266
1519269
1519282
1519307
1519311
1519349
1519371
1519403
1519409
1519432
1519457
1519472
1519496
1519505
1519526
1519532
1519568
1519571
1519573
1519633
1519639
1519655
1519659
1519689
1519703
1519758
1519762
1519787
1519863
1519895
1519908
1519909
1519920
1519944
1519949
1520020
1520028
1520029
1520034
1520047
1520054
1520081
1520093
1520110
1520123
1520125
1520152
1520173
1520218
1520243
1520263
1520269
1520275
1520289
1520310
1520353
1520364
1520399
1520401
1520404
1520409
1520415
1520425
1520427
1520451
1520453
1520459
1520462
1520465
1520491
1520535
1520546
1520564
1520588
1520589
1520599
1520634
1520663
1520682
1520683
1520694
1520776
1520779
1520800
1520824
1520844
1520871
1520884
1520918
1521011
1521013
1521042
1521048
1521057
1521067
1521068
1521078
1521082
1521095
1521102
1521116
1521119
1521123
1521125
1521127
1521129
1521130
1521135
1521136
1521155
1521188
1521203
1521214
1521254
1521273
1521276
1521277
1521315
1521318
1521327
1521374
1521391
1521412
1521504
1521548
1521553
1521585
1521635
1521657
1521684
1521686
1521928
1522057
1522064
1522098
1522136
1522174
1522181
1522205
1522215
1522224
1522237
1522247
1522258
1522260
1522261
1522263
1522266
1522303
1522315
1522318
1522342
1522349
1522407
1522419
1522431
1522433
1522578
1522816
1522869
1522898
1522901
1522906
1522951
1523144
1523179
1523273
1523303
1523308
1523380
1523392
1523431
1523439
1523451
1523564
1523571
1523588
1523599
1523627
1523665
1523707
1523751
1523776
1523860
1523895
1523954
1524015
1524110
1524181
1524193
1524233
1524286
1524294
1524304
1524314
1524415
1524437
1524516
1524518
1524555
1524571
1524577
1524583
1524600
1524622
1524627
1524629
1524665
1524678
1524698
1524756
1524824
1524833
1524863
1524945
1525010
1525022
1525030
1525033
1525037
1525041
1525057
1525066
1525070
1525135
1525155
1525163
1525164
1525186
1525192
1525227
1525249
1525255
1525268
1525281
1525327
1525366
1525501
1525540
1525587
1525602
1525643
1525645
1525654
1525690
1525704
1525712
1525734
1525787
1525811
1525813
1525825
1525830
1525843
1525876
1525902
1525907
1525946
1525956
1525964
1525967
1525992
1525993
1526141
1526239
1526254
1526284
1526501
1526652
1526723
1526731
1526753
1526823
1526830
1526831
1526848
1526849
1526864
1526865
1526875
1526880
1526883
1526893
1526919
1526978
1527005
1527047
1527091
1527227
1527236
1527336
1527408
1527444
1527450
1527472
1527486
1527491
1527508
1527584
1527646
1527683
1527707
1527744
1527745
1527768
1527772
1527782
1527783
1527787
1527798
1527827
1527828
1527853
1527875
1527911
1527945
1527992
1527997
1528002
1528003
1528076
1528079
1528094
1528096
1528108
1528146
1528163
1528247
1528298
1528390
1528395
1528467
1528481
1528513
1528524
1528609
1528638
1528640
1528654
1528686
1528690
1528711
1528720
1528729
1528744
1528755
1528764
1528771
1528772
1528811
1528868
1528884
1528908
1528938
1528946
1528948
1528958
1528966
1528970
1528975
1528976
1528991
1529005
1529013
1529026
1529053
1529070
1529079
1529110
1529112
1529116
1529118
1529123
1529142
1529186
1529212
1529215
1529223
1529254
1529268
1529273
1529290
1529292
1529306
1529315
1529358
1529406
1529443
1529467
1529598
1529604
1529619
1529653
1529767
1529774
1529834
1529918
1529961
1529975
1529978
1529994
1530025
1530042
1530106
1530131
1530150
1530192
1530212
1530245
1530246
1530253
1530254
1530255
1530268
1530271
1530367
1530386
1530394
1530442
1530467
1530476
1530477
1530490
1530537
1530541
1530589
1530598
1530601
1530609
1530614
1530617
1530630
1530638
1530643
1530662
1530680
1530683
1530696
1530703
1530708
1530709
1530737
1530742
1530771
1530792
1530822
1530851
1530863
1530949
1530986
1531043
1531077
1531126
1531152
1531164
1531218
1531235
1531247
1531257
1531278
1531280
1531284
1531329
1531335
1531342
1531347
1531349
1531365
1531380
1531381
1531422
1531430
1531435
1531455
1531480
