1438267
1438268
1439876
1440315
1464188
1489919
1497611
1533862
1536160
1554204
1557498
1580566
1630221
1679118
1679221
1685460
1697713
1698938
1704959
1718334
1746248
1782413
1785466
1818215
1826069
1826522
1855660
1855938
1876169
1892800
1902985
1907161
1911595
1920843
1922045
1922453
1922738
1922814
1923131
1923171
1930700
1934009
1938870
1947289
1951763
1951773
1951799
1951810
1951825
1951855
1951964
1951996
1952037
1952044
1952089
1952132
1952153
1952207
1952251
1952269
1952394
1952407
1952431
1952452
1952484
1952506
1952567
1952751
1952846
1952847
1952909
1952980
1953003
1953006
1953090
1953127
1953301
1953309
1953627
1953629
1953641
1953730
1953751
1953756
1953773
1953803
1953805
1954021
1954090
1954118
1954134
1954246
1954263
1954275
1954493
1954576
1954615
1954670
1954919
1954980
1954998
1955142
1955484
1955491
1955621
1955663
1955731
1955866
1955868
1955981
1955986
1956070
1956075
1956094
1956104
1956145
1956275
1956279
1956322
1956334
1956545
1956593
1956616
1956636
1956676
1956682
1956745
1956761
1956772
1956800
1956905
1956936
1956999
1957041
1957056
1957100
1957107
1957230
1957285
1957401
1957423
1957578
1957640
1957669
1957696
1957715
1957838
1958315
1958318
1958332
1958336
1958353
1958527
1958790
1958839
1958918
1958991
1959086
1959246
1959340
1959391
1959423
1959426
1959433
1959478
1959559
1959628
1959637
1959678
1959785
1960148
1960166
1960176
1960228
1960251
1960307
1960323
1960354
1960408
1960437
1960488
1960506
1960530
1960612
1960628
1960629
1960641
1960662
1960667
1960691
1960725
1960926
1961242
1961286
1961320
1961327
1961510
1961585
1961593
1961695
1961773
1961775
1961832
1961839
1961899
1961912
1962223
1962261
1962296
1962323
1962350
1962458
1962805
1962827
1962852
1963281
1963346
1963482
1963601
1963711
1963783
1963811
1963960
1963973
1964074
1964109
1964210
1964307
1964384
1964403
1964436
1964440
1964507
1964539
1964590
1964688
1964816
1964827
1964945
1965029
1965155
1965246
1965255
1965279
1965353
1965405
1965427
1965575
1965732
1965743
1965846
1966001
1966006
1966013
1966074
1966079
1966103
1966437
1966448
1966548
1966569
1966591
1966607
1966682
1966833
1966881
1966918
1966925
1966965
1967016
1967031
1967097
1967165
1967201
1967238
1967276
1967302
1967313
1967356
1967358
1967371
1967386
1967409
1967414
1967429
1967513
1967619
1967740
1967822
1967887
1968061
1968080
1968104
1968214
1968217
1968383
1968517
1968523
1968528
1968594
1968657
1968776
1968869
1969070
1969134
1969332
1969410
1969472
1969481
1969503
1969534
1969555
1969597
1969613
1969627
1969636
1969662
1969681
1969688
1969690
1969772
1969971
1970082
1970197
1970241
1970250
1970463
1970505
1970514
1970516
1970637
1970660
1970696
1970702
1971008
1971010
1971155
1971247
1971275
1971319
1971354
1971645
1971742
1971751
1971808
1971851
1972017
1972041
1972210
1972250
1972267
1972274
1972284
1972291
1972327
1972333
1972398
1972498
1972515
1972628
1972659
1972690
1972695
1972753
1972776
1972792
1972841
1972876
1972884
1972898
1972906
1972907
1973152
1973178
1973218
1973337
1973371
1973388
1973406
1973468
1973524
1973604
1973658
1973731
1973756
1973759
1973811
1973879
1973905
1973910
1973914
1973924
1973963
1973992
1973993
1974053
1974056
1974075
1974083
1974093
1974106
1974123
1974189
1974193
1974204
1974217
1974236
1974261
1974372
1974379
1974384
1974542
1974574
1974641
1974694
1974779
1974831
1974951
1974991
1975018
1975065
1975076
1975216
1975244
1975310
1975394
1975402
1975404
1975434
1975459
1975514
1975619
1975672
1975707
1975719
1975734
1975927
1975930
1975984
1975988
1976027
1976028
1976060
1976134
1976233
1976243
1976276
1976279
1976395
1976459
1976551
1976554
1976588
1976594
1976599
1976631
1976640
1976657
1976677
1976927
1976993
1977049
1977085
1977118
1977125
1977142
1977170
1977172
1977363
1977485
1977491
1977718
1977788
1977847
1977868
1977921
1977925
1978422
1978458
1978478
1978569
1978570
1978603
1978651
1978691
1978806
1979054
1979055
1979144
1979173
1979176
1979349
1979384
1979513
1979555
1979656
1979667
1979723
1979725
1979801
1979841
1979989
1980005
1980024
1980053
1980103
1980223
1980287
1980349
1980399
1980473
1980729
1980805
1980898
1980965
1980971
1980990
1981030
1981043
1981052
1981459
